id,name,type,subtype,watersystem,latitude,longitude,height,power,fwl,tag
WN_PEDROGAO_B0,Almeidas,Barragem,,pedrógão,38.066515,-7.828641,197,0.0,193.3,distribution
WN_PEDROGAO_B1,Pedrógão,Barragem,,pedrógão,38.130795,-7.607717,110,10,84.8,distribution
WN_PEDROGAO_B3,São Pedro,Barragem,,pedrógão,38.088779,-7.754323,144,0,142.5,distribution
WN_PEDROGAO_R3,R. Pedrógão,Reservatório,,pedrógão,38.116719,-7.666171,155,0.0,156.0,distribution
WN_PEDROGAO_R4,R. Selmes,Reservatório,,pedrógão,38.149458,-7.736434,137,0.0,198.0,distribution
WN_PEDROGAO_R5,R. da Cegonha,Reservatório,,pedrógão,38.095586,-7.772668,198,0.0,198.0,distribution
WN_PEDROGAO_E7,Pedrógão-Pedrógão1,Estação Elevatória,Secundária,pedrógão,38.110317,-7.633966,78,2.5,0.0,distribution
WN_PEDROGAO_E8,Pedrógão-R.Pedrógão,Estação Elevatória,Primária,pedrógão,38.110368,-7.633325,80,12.0,0.0,distribution
WN_PEDROGAO_E9,R.Pedrógão-Pedrógão3,Estação Elevatória,Secundária,pedrógão,38.116427,-7.667911,154,1.9,0.0,distribution
WN_PEDROGAO_E10,R.Selmes-Selmes2-Selmes5,Estação Elevatória,Secundária,pedrógão,38.150208,-7.735374,138,2.5,0.0,distribution
WN_PEDROGAO_E11,SPedro-RCegonha,Estação Elevatória,Primária,pedrógão,38.092554,-7.749559,126,3.6,0.0,distribution
WN_PEDROGAO_E12,SPedro-Amendoira,Estação Elevatória,Primária,pedrógão,38.077667,-7.763769,EE-S. Pedro,8.5,0.0,distribution
WN_PEDROGAO_E13,Almeidas-SMatias2-SMatias3,Estação Elevatória,Secundária,pedrógão,38.065559,-7.832011,,3.8,0.0,distribution
WN_PEDROGAO_B14,Amendoeira,Barragem,,pedrógão,38.059116,-7.759414,188,0.0,194.0,distribution
WN_PEDROGAO_B15,Magra,Barragem,ligação Abastecimento Público,pedrógão,38.045905,-7.768201,190,0.0,194.0,distribution
WN_PEDROGAO_R16,R. Estácio,Reservatório,,pedrógão,37.971667,-7.796173,190,0.0,189.0,distribution
WN_PEDROGAO_R17,Baleizão-Quintos R1,Reservatório,,pedrógão,37.964315,-7.797344,224,0.0,228.5,distribution
WN_PEDROGAO_E18,R.Estácio-BaleizãoQuintosR1,Estação Elevatória,Secundária,pedrógão,37.97196468907929,-7.794382453621557,190,0.0,2.9,distribution