id,name,type,subtype,watersystem,latitude,longitude,height,power,fwl,tag
WN_ALQUEVA_B0,Alqueva,Barragem,,alqueva,38.206491,-7.496078,143,520.0,152.0,origin
WN_ALQUEVA_B1,Alamos,Barragem,,alqueva,38.333779,-7.614198,208,0.0,227.5,distribution
WN_ALQUEVA_E69,R.Alfundao-AlfundaoAlto,Estação Elevatória,Secundária,alqueva,131231,,140,0.6,0,distribution

