id,snirh,latitude,longitude,Infraestrutura associada,Sistema EFMA,Estação,Nome SNIRH (APA),Código Massa de Água (DQA),Nome Massa de Água (DQA),Tipologia Massa de Água (DQA),Agrupamento Massa de Água (DQA),ARH,Programa,EDIA,Designação EDIA (SAP),Classe EDIA (SAP),Entidade Preponente
WQS_RPRISNIRH_0,23M/15,38.395249999999997,-7.3880100000000004,Alqueva,Alqueva,Alqueva-Mourão,ALQUEVA - MOURÃO - CCHA (S),PT07GUA1487A,Albufeira Alqueva (Principal),Albufeira,Curso Principal,Alentejo,Rede Primária Exploração,AQV-101-333-070-014,EMC_SUPRP_Alqueva - Mourão,EST_M_CONV_SUP_RP,EDIA
WQS_RPRISNIRH_1,25M/10,38.167290000000001,-7.4169700000000001,Pedrógão,Pedrógão,Ardila-Montante,ARDILA - MONTANTE - CCHA,PT07GUA1490N1,Rio Ardila,Rio,Sul,Alentejo,Rede Primária Exploração,PDG-105-333-070-197,EMC_SUPRP_Ardila-Montante,EST_M_CONV_SUP_RP,EDIA
WQS_RPRISNIRH_2,25L/15,38.15831,-7.5037500000000001,Pedrógão,Pedrógão,Moinho das Barcas,MOINHO DAS BARCAS - CCHA (S),PT07GUA1513,Albufeira Pedrogao,Albufeira,Curso Principal,Alentejo,Rede Primária Exploração,PDG-105-333-070-202,EMC_SUPRP_Moinho das Barcas,EST_M_CONV_SUP_RP,EDIA
WQS_RPRISNIRH_3,24N/16,38.329062100000002,-7.2786749999999998,Alqueva,Alqueva,Alcarrache-Montante,ALCARRACHE - MONTANTE - CCHA (S),PT07GUA1487C,Albufeira Alqueva (Braço Alcarrache),Albufeira,Curso Principal,Alentejo,Rede Primária Exploração,AQV-101-333-070-032,EMC_SUPRP_Alcarrache-Montante,EST_M_CONV_SUP_RP,EDIA
WQS_RPRISNIRH_4,23L/15,38.33802,-7.5733600000000001,Alqueva,Alqueva,Alqueva-Captação,ALQUEVA - CAPTAÇÃO - CCHA (S),PT07GUA1487B,Albufeira Alqueva (Braço Degebe),Albufeira,Curso Principal,Alentejo,Rede Primária Exploração,AQV-101-333-070-011,EMC_SUPRP_Alqueva - Captação,EST_M_CONV_SUP_RP,EDIA
WQS_RPRISNIRH_5,24M/17,38.21293,-7.4851099999999997,Alqueva,Alqueva,Alqueva-Degebe,ALQUEVA - DEGEBE - CCHA (S),PT07GUA1487A,Albufeira Alqueva (Principal),Albufeira,Curso Principal,Alentejo,Rede Primária Exploração,AQV-101-333-070-195,EMC_SUPRP_Alqueva-Degebe,EST_M_CONV_SUP_RP,EDIA
WQS_RPRISNIRH_6,24M/18,38.193570000000001,-7.4933300000000003,Pedrógão,Pedrógão,Alqueva-Descarga,ALQUEVA - DESCARGA - CCHA,PT07GUA1513,Albufeira Pedrogao,Albufeira,Curso Principal,Alentejo,Rede Primária Exploração,PDG-105-333-070-196,EMC_SUPRP_Alqueva-Descarga,EST_M_CONV_SUP_RP,EDIA
WQS_RPRISNIRH_7,aguarda código SNIR,-,-,Alqueva,Alqueva,Sra.ª da Ajuda-Margem,aguarda código SNIRH,-,-,-,-,-,Rede Primária Exploração,AQV-101-333-070-194,EMC_SUPRP_Sra da Ajuda-Margem,EST_M_CONV_SUP_RP,EDIA
WQS_RPRISNIRH_8,24N/15,38.319940000000003,-7.3227200000000003,Alqueva,Alqueva,Alcarrache,ALCARRACHE - CCHA (S),PT07GUA1487C,Albufeira Alqueva (Braço Alcarrache),Albufeira,Curso Principal,Alentejo,Rede Primária Exploração,AQV-101-333-070-010,EMC_SUPRP_Alcarrache,EST_M_CONV_SUP_RP,EDIA
WQS_RPRISNIRH_9,24M/15,38.218119999999999,-7.4655399999999998,Alqueva,Alqueva,Alqueva-Montante,ALQUEVA MONTANTE - CCHA (S),PT07GUA1487A,Albufeira Alqueva (Principal),Albufeira,Curso Principal,Alentejo,Rede Primária Exploração,AQV-101-333-070-013,EMC_SUPRP_Alqueva - Montante,EST_M_CONV_SUP_RP,EDIA
WQS_RPRISNIRH_10,25M/15,38.164969999999997,-7.4585600000000003,Pedrógão,Pedrógão,Ardila,ARDILA - CCHA (S),PT07GUA1513,Albufeira Pedrogao,Albufeira,Curso Principal,Alentejo,Rede Primária Exploração,PDG-105-333-070-016,EMC_SUPRP_Ardila,EST_M_CONV_SUP_RP,EDIA
WQS_RPRISNIRH_11,22N/15,38.554929999999999,-7.2993600000000001,Alqueva,Alqueva,Lucefécit,LUCEFECIT - CCHA (S),PT07GUA1487D,Albufeira Alqueva (Entrada Ribeira de Lucefécit),Albufeira,Curso Principal,Alentejo,Rede Primária Exploração,AQV-101-333-070-019,EMC_SUPRP_Lucefécit,EST_M_CONV_SUP_RP,EDIA
WQS_RPRISNIRH_12,24M/16,38.171329999999998,-7.4889999999999999,Pedrógão,Pedrógão,Alqueva-Jusante,ALQUEVA - JUSANTE - CCHA (S),PT07GUA1513,Albufeira Pedrogao,Albufeira,Curso Principal,Alentejo,Rede Primária Exploração,PDG-105-333-070-012,EMC_SUPRP_Alqueva - Jusante,EST_M_CONV_SUP_RP,EDIA
WQS_RPRISNIRH_13,25L/02,38.108739999999997,-7.6310799999999999,Pedrógão,Pedrógão,Pedrógão-Descarga,PEDROGÃO - DESCARGA - CCHA,PT07GUA1530,Rio Guadiana (Jusante B. Alqueva),Rio,GR SUL,Alentejo,Rede Primária Exploração,PDG-105-333-070-200,EMC_SUPRP_Pedrógão-Descarga,EST_M_CONV_SUP_RP,EDIA
WQS_RPRISNIRH_14,23L/11,38.344749999999998,-7.6238099999999998,Álamos,Alqueva,Álamos I,ÁLAMOS I - CCHA (S),PT07GUA1487G,Sistema de Albufeiras Álamo I e II,Albufeira,Sul,Alentejo,Rede Primária Exploração,AQV-107-333-070-006,EMC_SUPRP_Álamos I,EST_M_CONV_SUP_RP,EDIA
WQS_RPRISNIRH_15,23L/10,38.335630000000002,-7.6113600000000003,Álamos,Alqueva,Álamos II,ÁLAMOS II - CCHA (S),PT07GUA1487G,Sistema de Albufeiras Álamo I e II,Albufeira,Sul,Alentejo,Rede Primária Exploração,AQV-107-333-070-007,EMC_SUPRP_Álamos II,EST_M_CONV_SUP_RP,EDIA
WQS_RPRISNIRH_16,24L/04,38.328040000000001,-7.5959000000000003,Álamos,Alqueva,Álamos III,ÁLAMOS III - CCHA (S),PT07GUA1487B,Albufeira Alqueva (Braço Degebe),Albufeira,Curso Principal,Alentejo,Rede Primária Exploração,AQV-107-333-070-008,EMC_SUPRP_Álamos III,EST_M_CONV_SUP_RP,EDIA
WQS_RPRISNIRH_17,23K/13,38.369450000000001,-7.7348400000000002,Loureiro,Alqueva,Loureiro,LOUREIRO - CCHA (S),PT07GUA1473C,Albufeira do Loureiro,Albufeira,Sul,Alentejo,Rede Primária Exploração,AQV-110-333-070-017,EMC_SUPRP_Loureiro,EST_M_CONV_SUP_RP,EDIA
WQS_RPRISNIRH_18,23K/11,38.363329999999998,-7.73916,Loureiro,Alqueva,Loureiro-Tomada,LOUREIRO - TOMADA - CCHA (S),PT07GUA1473C,Albufeira do Loureiro,Albufeira,Sul,Alentejo,Rede Primária Exploração,AQV-110-333-070-018,EMC_SUPRP_Loureiro - Tomada,EST_M_CONV_SUP_RP,EDIA
WQS_RPRISNIRH_19,24L/05,38.3343299,-7.5919670999999997,Álamos,Alqueva,Álamos III-Jusante,ÁLAMOS III - JUSANTE - CCHA,PT07GUA1487B,Albufeira Alqueva (Braço Degebe),Albufeira,Curso Principal,Alentejo,Rede Primária Exploração,AQV-107-333-070-009,EMC_SUPRP_Alamos III - Jusante,EST_M_CONV_SUP_RP,EDIA
WQS_RPRISNIRH_20,23K/12,38.375970000000002,-7.7218600000000004,Loureiro,Alqueva,Loureiro-Jusante,LOUREIRO - JUSANTE - CCHA,PT07GUA1473B,Ribeira da Aldeia (HMWB - Jusante B. Loureiro),Rio,Sul,Alentejo,Rede Primária Exploração,AQV-110-333-070-024,EMC_SUPRP_Loureiro - Jusante,EST_M_CONV_SUP_RP,EDIA
WQS_RPRISNIRH_21,na,-,-,Loureiro,Alqueva,Loureiro-Montante,,-,-,-,-,-,Rede Primária Exploração,-,-,-,EDIA
WQS_RPRISNIRH_22,24J/11,38.283279999999998,-7.9090499999999997,Alvito,Alqueva,Alvito,ALVITO - CCHA (S),PT06SAD1273,Albufeira Alvito,Albufeira,Sul,Alentejo,Rede Primária Exploração,AQV-115-333-070-015,EMC_SUPRP_Alvito,EST_M_CONV_SUP_RP,EDIA
WQS_RPRISNIRH_23,25L/06,38.10624,-7.6337099999999998,Pedrógão,Pedrógão,Pedrógão-Jusante,PEDROGÃO - JUSANTE - CCHA,PT07GUA1530,Rio Guadiana (Jusante B. Alqueva),Rio,GR SUL,Alentejo,Rede Primária Exploração,PDG-105-333-070-020,EMC_SUPRP_Pedrógão - Jusante,EST_M_CONV_SUP_RP,EDIA
WQS_RPRISNIRH_24,23L/12,38.349674999999998,-7.6102959999999999,Álamos,Alqueva,Álamos II/I-Jusante,ÁLAMOS II/I - JUSANTE - CCHA,PT07GUA1487F,Ribeira das Veladas (HMWB - Jusante B. Álamo I e II),Rio,Sul,Alentejo,Rede Primária Exploração,AQV-107-333-070-021,EMC_SUPRP_Álamos II/I - Jusante,EST_M_CONV_SUP_RP,EDIA
WQS_RPRISNIRH_25,25L/03,38.110759999999999,-7.6288200000000002,Pedrógão,Pedrógão,Ardila-Captação,ARDILA - CAPTAÇÃO - CCHA (S),PT07GUA1513,Albufeira Pedrogao,Albufeira,Curso Principal,Alentejo,Rede Primária Exploração,PDG-105-333-070-203,EMC_SUPRP_Ardila - Captação,EST_M_CONV_SUP_RP,EDIA
WQS_RPRISNIRH_26,25L/04,38.111849999999997,-7.6307900000000002,Pedrógão,Pedrógão,Pedrógão-Captação,PEDROGÃO - CAPTAÇÃO - CCHA (S),PT07GUA1513,Albufeira Pedrogao,Albufeira,Curso Principal,Alentejo,Rede Primária Exploração,PDG-105-333-070-201,EMC_SUPRP_Pedrógão - Captação,EST_M_CONV_SUP_RP,EDIA
WQS_RPRISNIRH_27,24J/10,38.308709999999998,-7.84206,Alvito,Alqueva,Alvito-Túnel,ALVITO - TÚNEL - CCHA (S),PT06ART0023,Ligação Loureiro-Alvito,-,-,-,Rede Primária Exploração,AQV-115-333-070-035,EMC_SUPRP_Alvito - Túnel,EST_M_CONV_SUP_RP,EDIA
WQS_RPRISNIRH_28,23K/10,38.489240000000002,-7.7293000000000003,Reservatório R4,Alqueva,Reservatório R4,RESERVATÓRIO R4 - CCHA,PT07GUA1465,Ribeira do Albardão,Rio,Sul,Alentejo,Rede Primária Exploração,AQV-112-333-070-050,EMC_SUPRP_Reservatório R4,EST_M_CONV_SUP_RP,EDIA
WQS_RPRISNIRH_29,23K/14,38.480305999999999,-7.7264720000000002,Reservatório R4,Alqueva,Reservatório R4-Jusante,RESERVATÓRIO R4 - JUSANTE - CCHA,PT07GUA1465,Ribeira do Albardão,Rio,Sul,Alentejo,Rede Primária Exploração,AQV-112-333-070-051,EMC_SUPRP_Reservatório R4 - Jusante,EST_M_CONV_SUP_RP,EDIA
WQS_RPRISNIRH_30,24K/10,38.307080999999997,-7.8264139999999998,Alvito,Alqueva,Alvito-Montante,ALVITO - MONTANTE - CCHA,PT06SAD1262,Ribeira de Oriola,Rio,Sul,Alentejo,Rede Primária Exploração,AQV-115-333-070-023,EMC_SUPRP_Alvito - Montante,EST_M_CONV_SUP_RP,EDIA
WQS_RPRISNIRH_31,25J/11,38.086036,-7.9912640000000001,Pisão,Alqueva,Pisão-Jusante,PISÃO-JUSANTE - CCHA,PT06SAD1303B,Ribeira da Tramagueira (HMWB - Jusante B. Pisão),Rio,Sul,Alentejo,Rede Primária Exploração,AQV-133-333-070-038,EMC_SUPRP_Pisão - Jusante,EST_M_CONV_SUP_RP,EDIA
WQS_RPRISNIRH_32,25J/10,38.081209999999999,-7.9819500000000003,Pisão,Alqueva,Pisão,ALB. PISÃO - CCHA (S),PT06SAD1303A,Albufeira do Pisão,Albufeira,Sul,Alentejo,Rede Primária Exploração,AQV-133-333-070-037,EMC_SUPRP_Pisão,EST_M_CONV_SUP_RP,EDIA
WQS_RPRISNIRH_33,25L/07,38.09552,-7.5625900000000001,Amoreira,Ardila,Amoreira,AMOREIRA - CCHA (S),PT07GUA1515C,Albufeira da Amoreira,Albufeira,Sul,Alentejo,Rede Primária Exploração,ARD-109-333-070-004,EMC_SUPRP_Amoreira,EST_M_CONV_SUP_RP,EDIA
WQS_RPRISNIRH_34,25L/08,38.059699999999999,-7.5845900000000004,Brinches,Ardila,Brinches,BRINCHES - CCHA (S),PT07GUA1520B,Albufeira de Brinches,Albufeira,Sul,Alentejo,Rede Primária Exploração,ARD-111-333-070-042,EMC_SUPRP_Brinches,EST_M_CONV_SUP_RP,EDIA
WQS_RPRISNIRH_35,26L/10,37.991779999999999,-7.6044999999999998,Serpa,Ardila,Serpa,SERPA - CCHA (S),PT07GUA1531B,Albufeira de Serpa,Albufeira,Sul,Alentejo,Rede Primária Exploração,ARD-124-333-070-047,EMC_SUPRP_Serpa,EST_M_CONV_SUP_RP,EDIA
WQS_RPRISNIRH_36,25L/09,38.101135999999997,-7.5697809999999999,Amoreira,Ardila,Amoreira-Jusante,AMOREIRA - JUSANTE - CCHA,PT07GUA1510A,Barranco das Amoreiras (HMWB - Jusante B. Amoreiras),Rio,Sul,Alentejo,Rede Primária Exploração,ARD-109-333-070-005,EMC_SUPRP_Amoreira - Jusante,EST_M_CONV_SUP_RP,EDIA
WQS_RPRISNIRH_37,25L/10,38.059835,-7.5951250000000003,Brinches,Ardila,Brinches-Jusante,BRINCHES - JUSANTE - CCHA,PT07GUA1520C,Ribeira de Pias (HMWB - Jusante B. Brinches),Rio,Sul,Alentejo,Rede Primária Exploração,ARD-111-333-070-043,EMC_SUPRP_Brinches - Jusante,EST_M_CONV_SUP_RP,EDIA
WQS_RPRISNIRH_38,25L/05,38.111649999999997,-7.6291399999999996,Pedrógão,Pedrógão,Pedrógão/Ardila-Captação,PEDROGÃO/ARDILA - CAPTAÇÃO - CCHA (S),PT07GUA1513,Albufeira Pedrogao,Albufeira,Curso Principal,Alentejo,Rede Primária Exploração,PDG-105-333-070-041,EMC_SUPRP_Pedrógão/Ardila - Captação,EST_M_CONV_SUP_RP,EDIA
WQS_RPRISNIRH_39,26L/11,37.993009999999998,-7.6098800000000004,Serpa,Ardila,Serpa-Jusante,SERPA - JUSANTE - CCHA,PT07GUA1531C,Ribeira de Enxoé (HMWB - Jusante B. Serpa),Rio,Sul,Alentejo,Rede Primária Exploração,ARD-124-333-070-046,EMC_SUPRP_Serpa - Jusante,EST_M_CONV_SUP_RP,EDIA
WQS_RPRISNIRH_40,24J/12,38.271180000000001,-7.9160599999999999,Alvito,Alqueva,Alvito-Jusante,ALVITO - JUSANTE - CCHA,PT06SAD1282,Ribeira de Odivelas (Jusante B. Alvito),Rio,Sul,Alentejo,Rede Primária Exploração,AQV-115-333-070-022,EMC_SUPRP_Alvito - Jusante,EST_M_CONV_SUP_RP,EDIA
WQS_RPRISNIRH_41,21N/10,38.775590000000001,-7.17272,Alqueva,Alqueva,Sra.ª da Ajuda,SENHORA AJUDA - CCHA,PT07GUA1487E,Albufeira Alqueva (Montante Ribeira de Mures),Albufeira,Curso Principal,Alentejo,Rede Primária Exploração,AQV-101-333-070-025,EMC_SUPRP_Sra.ª da Ajuda,EST_M_CONV_SUP_RP,EDIA
WQS_RPRISNIRH_42,26L/12,37.969520000000003,-7.51694,Laje,Ardila,Laje,LAJE - CCHA (S),PT07GUA1527A,Albufeira da Laje,Albufeira,Sul,Alentejo,Rede Primária Exploração,ARD-121-333-070-044,EMC_SUPRP_Laje,EST_M_CONV_SUP_RP,EDIA
WQS_RPRISNIRH_43,25I/51,38.006197,-8.0726980000000008,Penedrão,Pedrógão,Penedrão,PENEDRÃO - CCHA (S),PT06SAD1309C,Albufeira de Penedrão,Albufeira,Sul,Alentejo,Rede Primária Exploração,AQV-121-333-070-040,EMC_SUPRP_Penedrão,EST_M_CONV_SUP_RP,EDIA
WQS_RPRISNIRH_44,26L/13,37.970162999999999,-7.528651,Laje,Ardila,Laje-Jusante,LAJE - JUSANTE - CCHA,PT07GUA1527B,Barranco da Laje (HMWB - Jusante B. Laje),Rio,Sul,Alentejo,Rede Primária Exploração,ARD-121-333-070-045,EMC_SUPRP_Laje - Jusante,EST_M_CONV_SUP_RP,EDIA
WQS_RPRISNIRH_45,21N/11,38.6751808,-7.2667048999999997,Alqueva,Alqueva,Asseca-Confluência,ASSECA - CONFLUÊNCIA - CCHA (C),PT07GUA1487D,Albufeira Alqueva (Entrada Ribeira de Lucefécit),Albufeira,Curso Principal,Alentejo,Rede Primária Exploração,AQV-101-333-070-028,EMC_SUPRP_Asseca-Confluência,EST_M_CONV_SUP_RP,EDIA
WQS_RPRISNIRH_46,23M/18,38.335960999999998,-7.4229120000000002,Alqueva,Alqueva,Mourão,MOURÃO - CCHA (C),PT07GUA1487A,Albufeira Alqueva (Principal),Albufeira,Curso Principal,Alentejo,Rede Primária Exploração,AQV-101-333-070-030,EMC_SUPRP_Mourão,EST_M_CONV_SUP_RP,EDIA
WQS_RPRISNIRH_47,24N/17,38.237580000000001,-7.3280000000000003,Alqueva,Alqueva,Zebro-Confluência,ZEBRO - CONFLUÊNCIA - CCHA,PT07GUA1484,Ribeiro do Zebro,Rio,Sul,Alentejo,Rede Primária Exploração,AQV-101-333-070-033,EMC_SUPRP_Zebro-Confluência,EST_M_CONV_SUP_RP,EDIA
WQS_RPRISNIRH_48,23L/16,38.402333800000001,-7.6665177,Alqueva,Alqueva,Degebe-Confluência,DEGEBE - CONFLUÊNCIA - CCHA (S),PT07GUA1487B,Albufeira Alqueva (Braço Degebe),Albufeira,Curso Principal,Alentejo,Rede Primária Exploração,AQV-101-333-070-034,EMC_SUPRP_Degebe-Confluência,EST_M_CONV_SUP_RP,EDIA
WQS_RPRISNIRH_49,23M/17,38.4413208,-7.3394689,Alqueva,Alqueva,Azevél-Confluência,AZEVÉL - CONFLUÊNCIA - CCHA,PT07GUA1487A,Albufeira Alqueva (Principal),Albufeira,Curso Principal,Alentejo,Rede Primária Exploração,AQV-101-333-070-029,EMC_SUPRP_Azevél-Confluência,EST_M_CONV_SUP_RP,EDIA
WQS_RPRISNIRH_50,22M/03,38.5973404,-7.3441818999999997,Alqueva,Alqueva,Lucefécit-Confluência,LUCEFÉCIT - CONFLUÊNCIA - CCHA (S),PT07GUA1487D,Albufeira Alqueva (Entrada Ribeira de Lucefécit),Albufeira,Curso Principal,Alentejo,Rede Primária Exploração,AQV-101-333-070-027,EMC_SUPRP_Lucefécit-Confluência,EST_M_CONV_SUP_RP,EDIA
WQS_RPRISNIRH_51,23M/16,38.412745100000002,-7.4665856000000002,Alqueva,Alqueva,Álamo,ÁLAMO - CCHA,PT07GUA1474,Ribeira do Álamo,Rio,Sul,Alentejo,Rede Primária Exploração,AQV-101-333-070-031,EMC_SUPRP_Álamo,EST_M_CONV_SUP_RP,EDIA
WQS_RPRISNIRH_52,24I/03,38.17586,-8.1334199999999992,Odivelas,Alqueva,Odivelas-Jusante,ODIVELAS - JUSANTE - CCHA,PT06SAD1287,Ribeira de Odivelas (HMWB - Jusante B. Odivelas),Rio,Sul,Alentejo,Rede Primária Exploração,AQV-145-005-333-070-036,EMC_SUPRP_Odivelas - Jusante,EST_M_CONV_SUP_RP,EDIA
WQS_RPRISNIRH_53,25J/12,38.010620000000003,-7.9386099999999997,Cinco Reis,Alqueva,Cinco Reis,CINCO REIS - CCHA (S),PT06SAD1323,Ribeira do Outeiro,Rio,Sul,Alentejo,Rede Primária Exploração,AQV-130-009-333-070-039,EMC_SUPRP_Cinco Reis,EST_M_CONV_SUP_RP,EDIA
WQS_RPRISNIRH_54,25K/51,38.096710000000002,-7.7473000000000001,S. Pedro,Pedrógão,Jusante-S. Pedro,RIBEIRA DE SÃO PEDRO - SPEDROJUS - CCHA,PT07GUA1509,Ribeira de São Pedro,Rio,Sul,Alentejo,Rede Primária Exploração,PDG-110-060-333-070-001,EMC_SUPRP_Jusante-S. Pedro,EST_M_CONV_SUP_RP,EDIA
