name,latitude,longitude,height
Alqueva,38.206491,-7.496078,143
Alvito,38.299423,-7.887377,187
Loureiro,38.365344,-7.738848,211
Odivelas,38.191179,-8.093254,100
Monte Novo,38.525416,-7.723724,222
Pisão,38.071785,-7.983358,156
Vale do Gaio,38.264721,-8.266889,50
Roxo,37.93240865,-8.08130926,130
Cinco Reis,38.016251,-7.93860912,206
Alamos,38.333779,-7.614198,208

Serpa,37.99129345682565,-7.60478488467882,112
Brinches,38.059109,-7.578559,125
Roxo,37.938497,-8.062933,138
São Pedro,38.088779,-7.754323,144
Amoreira,38.090950,-7.553498,127
Laje,37.964791,-7.513337,179
Almeidas,38.066515,-7.828641,197
Amendoeira,38.059116,-7.759414,188
Magra,38.045905,-7.768201,190
Caliços,38.098884,-7.486496,193
Pedrogão,38.130795,-7.607717,110
Enxoé,37.987282,-7.452927,173
Pias,38.049480,-7.464960,180
Furta Galinhas,38.067948,-7.383007,221
Penedrão,38.002357,-8.071118,168

//R

R. Atalaia,38.090358,-7.442966,231
R. Estácio,37.971667,-7.796173,190
R. da Cegonha,38.095586,-7.772668,198
R. Pedrógão,38.116719,-7.666171,155
R. Orada,38.097147,-7.619385,140
R. Brinches Sul,38.025042,-7.565723,163
R. Serpa Norte,37.958185,-7.600299,184
R. Baronia,38.249620,-8.024470,177
R. Brinches Norte,38.075386,-7.582642,136
R. Montinhos,38.007126,-7.546994,178
R. Guadalupe,37.911997,-7.574403,190

R. Selmes,38.149458,-7.736434,137
Baleizão-Quintos R1,37.964315,-7.797344,224



Monte Novo R1,38.437208,-7.784449,214
Monte Novo R2,38.444841,-7.774843,213
Monte Novo R3,38.464195,-7.737509,210
Monte Novo R4,38.492707,-7.763941,204
Monte Novo R4.1,38.488997,-7.728874,204
Barras,38.258733,-8.106630,177
R. L. Vermelha,38.059049,-8.228668,84
R. M. Branco,38.056928,-8.191574,82
R. Marmelo,38.092309,-8.169275,91
Alvito-Pisão R3,38.170026,-7.846642,179
Alvito-Pisão R4,38.161503,-7.827229,174
Alvito-Pisão R1,38.170938,-7.910505,177
Alvito-Pisão R2,38.135555,-7.918882,177
R. Álamo,38.061057,-7.955862,170
R. Beringel,38.046801,-7.960828,214
R. Alfundão,38.10037792620168,-8.025182267876854,140
R. Pisão,38.080140,-7.994742,165
R. Ferreira,38.064795,-8.075838,162
Ervidel R2,38.001986,-8.079631,185
Ervidel R1,38.045868,-8.081989,173
R. Mtes Velhos,37.950454,-8.178053,98
Roxo-Sado R3,37.893507,-8.247954,128
Roxo-Sado R2,37.929467,-8.257135,96
Roxo-Sado R1,37.970790,-8.190094,103



// EE

Alqueva-Alamos,38.337011,-7.575005,152
Loureiro-Alvito,38.363315,-7.741760,223
R4.1-4a,38.487806,-7.728751,206
R1-1.2,38.436314,-7.783394,210
R2-2,38.445320,-7.774157,209
R4-4.1,38.493832,-7.764471,204
R4-MonteNovo,38.493952,-7.764512,204
RBaroina-BaroinaAlto-Alvito,38.249501,-8.026152,179
R.Alamo-R.Beringel,38.060731,-7.956979,112
R.Beringel-B.Elevatório,38.044086,-7.963265,198
5Reis-Beja,38.008778,-7.937931,194
Alvito-CO1-CO2,38.170421,-7.909051,180
Alvito-CE2-CE1,38.168278,-7.847634,179
Alvito-V2,38.160417,-7.827944,178
RAlfundao-AlfundaoAlto,38.100769,-8.026315,140
Pisao-Pisao1-Pisao2-RPisao,38.083017,-7.983396,147
R.Ferreira-Ferreira,38.067191,-8.077180,158
Penedrao-Ervidel,38.002869,-8.076934,170
R.MtesVelhos-Aljustrel,37.950455,-8.179389,98
RoxoR2-RoxoR3,37.928534,-8.257744,98
R.Marmelo-Marmelo,38.092765,-8.173553,86
R.M.Branco-M.Branco,38.060897,-8.195833,79
R.L.Vermelha-L.Vermelha,38.061846,-8.228187,78


-- Ardila --

Pedrógão-R.Orada,38.108745,-7.629173,82,EE- Conduta elevatória Pedrógão ME
R.B.Norte-Magoita-Contendinha,38.074684,-7.583352,132
Amoreira-OradaAmoreira,38.097981,-7.563316,118
Amoreira-Caliços,38.098688,-7.562580,118,EE-Amoreira
Caliços-R.Atalaia,38.097570,-7.484453,195,EE-Caliços-Atalaia/Furta Galinhas
Pias-Alto,38.054337,-7.476956,174
Brinches-R.B.Sul,38.060788,-7.587791,120,EE-Brinches
R.B.S-Cangueiro-Navegadas,38.023787,-7.633520,176


-- Pedrogao --
Pedrógão-R.Pedrógão,38.110368,-7.633325,80,EE-Conduta Elevatória Pedrogão MD
Pedrógão-Pedrógão1,38.110317,-7.633966,78
R.Pedrógão-Pedrógão3,38.116427,-7.667911,154
SPedro-RCegonha,38.092554,-7.749559,126,EE-S. Matias
SPedro-Amendoira,38.077667,-7.763769,EE-S. Pedro
R.Selmes-Selmes2-Selmes5,38.150208,-7.735374,138
Almeidas-SMatias2-SMatias3,38.065559,-7.832011

// conduta
R4-MonteNovo,38.520146,-7.742187,220
Alvito-ValedoGaio-Odivelas,38.238235,-7.963154,182
Odivelas,38.218503,-8.058152,101
R. Baroina,38.246363,-8.011380,183
Alvito-Pisão-Penedrão,38.181677,-7.901244,180
Alvito-Pisão,38.082202,-7.966222,178
Alvito-Penedrão,38.061668,-8.074714
Mtes Velhos,37.960210,-8.173820,105
Nó Xacafre,37.972068,-8.189035,103
R.B.Sul-Serpa,38.009612,-7.564004,169
R.B.Sul-Laje-Enxoe,37.990890,-7.542120,127
R.B.Sul-R.Montinhos,38.003666,-7.553152,151

















