id,name,type,subtype,watersystem,latitude,longitude,height,power,fwl,tag
WN_ALQUEVA_B0,Alqueva,Barragem,,alqueva,38.206491,-7.496078,143,520.0,152.0,origin
WN_ALQUEVA_B1,Alamos,Barragem,,alqueva,38.333779,-7.614198,208,0.0,227.5,distribution
WN_ALQUEVA_B2,Loureiro,Barragem,,alqueva,38.365344,-7.738848,211,0.0,220.0,distribution
WN_ALQUEVA_B3,Alvito,Barragem,ligação Abastecimento Público,alqueva,38.299423,-7.887377,187,2.9,197.5,distribution
WN_ALQUEVA_E4,Alqueva-Alamos,Estação Elevatória,Primária,alqueva,38.337011,-7.575005,152,42.0,0.0,
WN_ALQUEVA_E5,Loureiro-Alvito,Estação Elevatória,Secundária,alqueva,38.363315,-7.74176,223,0.8,0.0,distribution
WN_ALQUEVA_R7,Monte Novo R1,Reservatório,,alqueva,38.437208,-7.784449,214,0.0,0.0,distribution
WN_ALQUEVA_R8,Monte Novo R2,Reservatório,,alqueva,38.444841,-7.774843,213,0.0,0.0,distribution
WN_ALQUEVA_R9,Monte Novo R3,Reservatório,,alqueva,38.464195,-7.737509,210,0.0,0.0,distribution
WN_ALQUEVA_R10,Monte Novo R4.1,Reservatório,,alqueva,38.488997,-7.728874,204,0.0,0.0,distribution
WN_ALQUEVA_R11,Monte Novo R4,Reservatório,,alqueva,38.492707,-7.763941,204,0.0,0.0,distribution
WN_ALQUEVA_C12,R4-MonteNovo,Conduta,,alqueva,38.520146,-7.742187,220,0.0,0.0,distribution
WN_ALQUEVA_B13,Monte Novo,Barragem,ligação Abastecimento Público,alqueva,38.525416,-7.723724,222,0.0,196.0,end
WN_ALQUEVA_E14,R1-1.2,Estação Elevatória,Secundária,alqueva,38.436314,-7.783394,210,1.0,0.0,distribution
WN_ALQUEVA_E15,R2-2,Estação Elevatória,Secundária,alqueva,38.44532,-7.774157,209,1.1,0.0,distribution
WN_ALQUEVA_E16,R4-4.1,Estação Elevatória,Secundária,alqueva,38.493832,-7.764471,204,0.9,0.0,distribution
WN_ALQUEVA_E17,R4.1-4a,Estação Elevatória,Secundária,alqueva,38.487806,-7.728751,206,2.0,0.0,distribution
WN_ALQUEVA_E18,R4-MonteNovo,Estação Elevatória,Primária,alqueva,38.493952,-7.764512,204,0.3,0.0,distribution
WN_ALQUEVA_R20,Barras,Reservatório,,alqueva,38.258733,-8.10663,177,0.0,0.0,distribution
WN_ALQUEVA_B21,Vale do Gaio,Barragem,ligação Abastecimento Público,alqueva,38.264721,-8.266889,50,1.1,40.6,end
WN_ALQUEVA_B22,Odivelas,Barragem,,alqueva,38.191179,-8.093254,100,2.2,103.0,distribution
WN_ALQUEVA_E23,RBaroina-BaroinaAlto-Alvito,Estação Elevatória,Secundária,alqueva,38.249501,-8.026152,179,1.0,0.0,distribution
WN_ALQUEVA_C24,Alvito-ValedoGaio-Odivelas,Conduta,distribution,alqueva,38.238235,-7.963154,182,0.0,0.0,
WN_ALQUEVA_C25,R. Baroina,Conduta,,alqueva,38.246363,-8.01138,183,0.0,0.0,distribution
WN_ALQUEVA_C26,Odivelas,Conduta,,alqueva,38.218503,-8.058152,101,0.0,0.0,distribution
WN_ALQUEVA_R27,R. Marmelo,Reservatório,,alqueva,38.092309,-8.169275,91,0.0,0.0,distribution
WN_ALQUEVA_R28,R. M. Branco,Reservatório,,alqueva,38.056928,-8.191574,82,0.0,0.0,distribution
WN_ALQUEVA_R29,R. L. Vermelha,Reservatório,,alqueva,38.059049,-8.228668,84,0.0,0.0,distribution
WN_ALQUEVA_E30,R.Marmelo-Marmelo,Estação Elevatória,Secundária,alqueva,38.092765,-8.173553,86,3.6,0.0,distribution
WN_ALQUEVA_E31,R.M.Branco-M.Branco,Estação Elevatória,Secundária,alqueva,38.060897,-8.195833,79,3.6,0.0,distribution
WN_ALQUEVA_E32,R.L.Vermelha-L.Vermelha,Estação Elevatória,Secundária,alqueva,38.061846,-8.228187,78,3.7,0.0,distribution
WN_ALQUEVA_B33,Roxo,Barragem,ligação Abastecimento Público,alqueva,37.93240865,-8.08130926,130,1.4,136.0,
WN_ALQUEVA_B33,Roxo,Barragem,ligação Abastecimento Público,alqueva,37.938497,-8.062933,138,1.4,136.0,
WN_ALQUEVA_R34,Roxo-Sado R1,Reservatório,,alqueva,37.97079,-8.190094,103,0.0,0.0,distribution
WN_ALQUEVA_R35,Roxo-Sado R2,Reservatório,,alqueva,37.929467,-8.257135,96,0.0,0.0,distribution
WN_ALQUEVA_R36,Roxo-Sado R3,Reservatório,,alqueva,37.893507,-8.247954,128,0.0,0.0,distribution
WN_ALQUEVA_R37,R. Mtes Velhos,Reservatório,,alqueva,37.950454,-8.178053,98,0.0,0.0,distribution
WN_ALQUEVA_E38,RoxoR2-RoxoR3,Estação Elevatória,Secundária,alqueva,37.928534,-8.257744,98,1.5,0.0,distribution
WN_ALQUEVA_E39,R.MtesVelhos-Aljustrel,Estação Elevatória,Secundária,alqueva,37.950455,-8.179389,98,1.1,0.0,distribution
WN_ALQUEVA_C40,Mtes Velhos,Conduta,,alqueva,37.96021,-8.17382,105,0.0,0.0,distribution
WN_ALQUEVA_C41,Nó Xacafre,Conduta,,alqueva,37.972068,-8.189035,103,0.0,0.0,distribution
WN_ALQUEVA_B42,Cinco Reis,Barragem,,alqueva,38.016251,-7.93860912,206,0.0,204.0,
WN_ALQUEVA_B43,Penedrão,Barragem,,alqueva,38.002357,-8.071118,168,0.0,170.0,
WN_ALQUEVA_B44,Pisão,Barragem,,alqueva,38.071785,-7.983358,156,0.0,155.0,
WN_ALQUEVA_R45,Alvito-Pisão R1,Reservatório,,alqueva,38.170938,-7.910505,177,0.0,0.0,distribution
WN_ALQUEVA_R46,Alvito-Pisão R2,Reservatório,,alqueva,38.135555,-7.918882,177,0.0,0.0,distribution
WN_ALQUEVA_R47,Alvito-Pisão R3,Reservatório,,alqueva,38.170026,-7.846642,179,0.0,0.0,distribution
WN_ALQUEVA_R48,Alvito-Pisão R4,Reservatório,,alqueva,38.161503,-7.827229,174,0.0,0.0,distribution
WN_ALQUEVA_R49,R. Álamo,Reservatório,,alqueva,38.061057,-7.955862,170,0.0,0.0,distribution
WN_ALQUEVA_R50,R. Beringel,Reservatório,,alqueva,38.046801,-7.960828,214,0.0,0.0,distribution
WN_ALQUEVA_R51,Ervidel R1,Reservatório,,alqueva,38.045868,-8.081989,173,0.0,0.0,distribution
WN_ALQUEVA_E52,Alvito-CO1-CO2,Estação Elevatória,Secundária,alqueva,38.170421,-7.909051,180,3.2,0.0,distribution
WN_ALQUEVA_E53,Alvito-CE2-CE1,Estação Elevatória,Secundária,alqueva,38.168278,-7.847634,179,2.0,0.0,distribution
WN_ALQUEVA_E54,Alvito-V2,Estação Elevatória,Secundária,alqueva,38.160417,-7.827944,178,3.2,0.0,distribution
WN_ALQUEVA_E55,R.Alamo-R.Beringel,Estação Elevatória,Primária,alqueva,38.060731,-7.956979,112,4.5,0.0,distribution
WN_ALQUEVA_E56,R.Beringel-B.Elevatório,Estação Elevatória,Secundária,alqueva,38.044086,-7.963265,198,0.4,0.0,distribution
WN_ALQUEVA_C57,Alvito-Pisão-Penedrão,Conduta,,alqueva,38.181677,-7.901244,180,0.0,0.0,distribution
WN_ALQUEVA_C58,Alvito-Pisão,Conduta,,alqueva,38.082202,-7.966222,178,0.0,0.0,distribution
WN_ALQUEVA_C59,Alvito-Penedrão,Conduta,,alqueva,38.061668,-8.074714,176,0.0,0.0,distribution
WN_ALQUEVA_R60,Ervidel R2,Reservatório,,alqueva,38.001986,-8.079631,185,0.0,0.0,distribution
WN_ALQUEVA_E61,Penedrao-Ervidel,Estação Elevatória,Secundária,alqueva,38.002869,-8.076934,170,4.5,0.0,distribution
WN_ALQUEVA_E62,5Reis-Beja,Estação Elevatória,Secundária,alqueva,38.008778,-7.937931,194,1.6,0.0,distribution
WN_ALQUEVA_R63,R. Pisão,Reservatório,,alqueva,38.08014,-7.994742,165,0.0,0.0,distribution
WN_ALQUEVA_R64,R. Ferreira,Reservatório,,alqueva,38.064795,-8.075838,162,0.0,0.0,distribution
WN_ALQUEVA_R65,R. Alfundão,Reservatório,,alqueva,38.10037792620168,-8.025182267876854,140,0.0,0.0,distribution
WN_ALQUEVA_E66,Pisao-Pisao1-Pisao2-RPisao,Estação Elevatória,Secundária,alqueva,38.083017,-7.983396,147,4.0,0.0,distribution
WN_ALQUEVA_E67,R.Ferreira-Ferreira,Estação Elevatória,Secundária,alqueva,38.067191,-8.07718,158,1.2,0.0,distribution
WN_ALQUEVA_R68,R. Baroina,Reservatório,,alqueva,38.246363,-8.011380,183,0,0,distribution
WN_ALQUEVA_E69,R.Alfundao-AlfundaoAlto,Estação Elevatória,Secundária,alqueva,38.100769,-8.026315,140,0.6,0,distribution

