"start","end","type","subtype","flow_rate"
"WN_ALQUEVA_B0","WN_ALQUEVA_E4","Aduação","Bombagem","42"
"WN_ALQUEVA_B1","WN_ALQUEVA_B2","Aduação","Bombagem","37"
"WN_ALQUEVA_B2","WN_ALQUEVA_E5","Aduação","Gravidade","32"
"WN_ALQUEVA_B3","WN_ALQUEVA_C24","Aduação","Gravidade","40"
"WN_ALQUEVA_B3","WN_ALQUEVA_R7","Aduação","Gravidade","9"
"WN_ALQUEVA_E4","WN_ALQUEVA_B1","Aduação","Bombagem","42"
"WN_ALQUEVA_E5","WN_ALQUEVA_B3","Aduação","Gravidade","32"
"WN_ALQUEVA_E5","WN_ALQUEVA_A35","Aduação Blocos de Rega","Gravidade",""
"WN_ALQUEVA_R7","WN_ALQUEVA_E14","Aduação","Gravidade",""
"WN_ALQUEVA_R7","WN_ALQUEVA_R8","Aduação","Gravidade",""
"WN_ALQUEVA_R7","WN_ALQUEVA_A3","Aduação Blocos de Rega","Pressão",""
"WN_ALQUEVA_R8","WN_ALQUEVA_R9","Aduação","Gravidade",""
"WN_ALQUEVA_R8","WN_ALQUEVA_E15","Aduação","Gravidade",""
"WN_ALQUEVA_R9","WN_ALQUEVA_A21","Aduação Blocos de Rega","Pressão",""
"WN_ALQUEVA_R9","WN_ALQUEVA_R10","Aduação","Gravidade",""
"WN_ALQUEVA_R9","WN_ALQUEVA_R11","Aduação","Gravidade",""
"WN_ALQUEVA_R10","WN_ALQUEVA_E17","Aduação","Gravidade",""
"WN_ALQUEVA_R10","WN_ALQUEVA_A5","Aduação Blocos de Rega","Pressão",""
"WN_ALQUEVA_R11","WN_ALQUEVA_E16","Aduação","Gravidade",""
"WN_ALQUEVA_R11","WN_ALQUEVA_E18","Aduação","Gravidade",""
"WN_ALQUEVA_C12","WN_ALQUEVA_B13","Aduação","Gravidade",""
"WN_ALQUEVA_E14","WN_ALQUEVA_A0","Aduação Blocos de Rega","Pressão",""
"WN_ALQUEVA_E15","WN_ALQUEVA_A23","Aduação Blocos de Rega","Pressão",""
"WN_ALQUEVA_E16","WN_ALQUEVA_A6","Aduação Blocos de Rega","Pressão",""
"WN_ALQUEVA_E17","WN_ALQUEVA_A2","Aduação Blocos de Rega","Pressão",""
"WN_ALQUEVA_E18","WN_ALQUEVA_C12","Aduação","Bombagem",""
"WN_ALQUEVA_R68","WN_ALQUEVA_E23","Aduação","Gravidade",""
"WN_ALQUEVA_R68","WN_ALQUEVA_A7","Aduação Blocos de Rega","Gravidade",""
"WN_ALQUEVA_R20","WN_ALQUEVA_B21","Aduação","Gravidade","1.2"
"WN_ALQUEVA_R20","WN_ALQUEVA_A9","Aduação Blocos de Rega","Gravidade",""
"WN_ALQUEVA_B22","WN_ALQUEVA_R27","Aduação Blocos de Rega","Gravidade",""
"WN_ALQUEVA_E23","WN_ALQUEVA_A8","Aduação Blocos de Rega","Pressão",""
"WN_ALQUEVA_E23","WN_ALQUEVA_A7","Aduação Blocos de Rega","Pressão",""
"WN_ALQUEVA_C24","WN_ALQUEVA_C57","Aduação","Gravidade",""
"WN_ALQUEVA_C24","WN_ALQUEVA_C25","Aduação","Gravidade",""
"WN_ALQUEVA_C25","WN_ALQUEVA_R68","Aduação","Gravidade",""
"WN_ALQUEVA_C25","WN_ALQUEVA_C26","Aduação","Gravidade","6"
"WN_ALQUEVA_C26","WN_ALQUEVA_R20","Aduação","Gravidade",""
"WN_ALQUEVA_C26","WN_ALQUEVA_B22","Aduação","Gravidade","4"
"WN_ALQUEVA_R27","WN_ALQUEVA_E30","Aduação Blocos de Rega","Gravidade",""
"WN_ALQUEVA_R27","WN_ALQUEVA_R28","Aduação Blocos de Rega","Gravidade",""
"WN_ALQUEVA_R28","WN_ALQUEVA_E31","Aduação Blocos de Rega","Gravidade",""
"WN_ALQUEVA_R28","WN_ALQUEVA_R29","Aduação Blocos de Rega","Gravidade",""
"WN_ALQUEVA_R29","WN_ALQUEVA_E32","Aduação Blocos de Rega","Gravidade",""
"WN_ALQUEVA_E30","WN_ALQUEVA_A10","Aduação Blocos de Rega","Pressão",""
"WN_ALQUEVA_E31","WN_ALQUEVA_A11","Aduação Blocos de Rega","Pressão",""
"WN_ALQUEVA_E32","WN_ALQUEVA_A12","Aduação Blocos de Rega","Pressão",""
"WN_ALQUEVA_B33","WN_ALQUEVA_C40","Aduação","Gravidade",""
"WN_ALQUEVA_R34","WN_ALQUEVA_R35","Aduação","Gravidade",""
"WN_ALQUEVA_R35","WN_ALQUEVA_E38","Aduação","Gravidade",""
"WN_ALQUEVA_R37","WN_ALQUEVA_E39","Aduação Blocos de Rega","Gravidade",""
"WN_ALQUEVA_E38","WN_ALQUEVA_R36","Aduação","Gravidade",""
"WN_ALQUEVA_E39","WN_ALQUEVA_A13","Aduação Blocos de Rega","Pressão",""
"WN_ALQUEVA_C40","WN_ALQUEVA_R37","Aduação Blocos de Rega","Gravidade",""
"WN_ALQUEVA_C40","WN_ALQUEVA_C41","Aduação","Gravidade",""
"WN_ALQUEVA_C41","WN_ALQUEVA_R34","Aduação","Gravidade",""
"WN_ALQUEVA_B42","WN_ALQUEVA_E62","Aduação Blocos de Rega","Pressão",""
"WN_ALQUEVA_B43","WN_ALQUEVA_E61","Aduação Blocos de Rega","Pressão",""
"WN_ALQUEVA_B43","WN_ALQUEVA_B33","Aduação","Gravidade","6"
"WN_ALQUEVA_B44","WN_ALQUEVA_R65","Aduação","Gravidade",""
"WN_ALQUEVA_B44","WN_ALQUEVA_E66","Aduação Blocos de Rega","Pressão",""
"WN_ALQUEVA_R45","WN_ALQUEVA_E52","Aduação","Gravidade",""
"WN_ALQUEVA_R45","WN_ALQUEVA_R46","Aduação","Gravidade",""
"WN_ALQUEVA_R46","WN_ALQUEVA_A17","Aduação Blocos de Rega","Gravidade",""
"WN_ALQUEVA_R46","WN_ALQUEVA_C58","Aduação","Gravidade","20"
"WN_ALQUEVA_R47","WN_ALQUEVA_E53","Aduação","Gravidade",""
"WN_ALQUEVA_R47","WN_ALQUEVA_R48","Aduação","Gravidade",""
"WN_ALQUEVA_R48","WN_ALQUEVA_E54","Aduação","Gravidade",""
"WN_ALQUEVA_R49","WN_ALQUEVA_E55","Aduação","Bombagem",""
"WN_ALQUEVA_R50","WN_ALQUEVA_B42","Aduação","Gravidade","5.2"
"WN_ALQUEVA_R50","WN_ALQUEVA_E56","Aduação Blocos de Rega","Pressão",""
"WN_ALQUEVA_R50","WN_ALQUEVA_A26","Aduação Blocos de Rega","Gravidade",""
"WN_ALQUEVA_R51","WN_ALQUEVA_A22","Aduação Blocos de Rega","Gravidade",""
"WN_ALQUEVA_R51","WN_ALQUEVA_B43","Aduação","Gravidade",""
"WN_ALQUEVA_E52","WN_ALQUEVA_A16","Aduação Blocos de Rega","Pressão",""
"WN_ALQUEVA_E52","WN_ALQUEVA_A15","Aduação Blocos de Rega","Pressão",""
"WN_ALQUEVA_E53","WN_ALQUEVA_A18","Aduação Blocos de Rega","Pressão",""
"WN_ALQUEVA_E53","WN_ALQUEVA_A14","Aduação Blocos de Rega","Pressão",""
"WN_ALQUEVA_E54","WN_ALQUEVA_A20","Aduação Blocos de Rega","Pressão",""
"WN_ALQUEVA_E54","WN_ALQUEVA_A19","Aduação Blocos de Rega","Pressão",""
"WN_ALQUEVA_E55","WN_ALQUEVA_R50","Aduação","Bombagem",""
"WN_ALQUEVA_E55","WN_ALQUEVA_A24","Aduação Blocos de Rega","Gravidade",""
"WN_ALQUEVA_E56","WN_ALQUEVA_A25","Aduação Blocos de Rega","Pressão",""
"WN_ALQUEVA_C57","WN_ALQUEVA_R45","Aduação","Gravidade",""
"WN_ALQUEVA_C57","WN_ALQUEVA_R47","Aduação","Gravidade",""
"WN_ALQUEVA_C58","WN_ALQUEVA_R49","Aduação","Gravidade","7"
"WN_ALQUEVA_C58","WN_ALQUEVA_C59","Aduação","Gravidade","11"
"WN_ALQUEVA_C58","WN_ALQUEVA_B44","Aduação","Gravidade","4"
"WN_ALQUEVA_C59","WN_ALQUEVA_R51","Aduação","Gravidade","6"
"WN_ALQUEVA_C59","WN_ALQUEVA_R64","Aduação","Gravidade",""
"WN_ALQUEVA_R60","WN_ALQUEVA_A23","Aduação Blocos de Rega","Gravidade",""
"WN_ALQUEVA_E61","WN_ALQUEVA_A21","Aduação Blocos de Rega","Pressão",""
"WN_ALQUEVA_E61","WN_ALQUEVA_R60","Aduação Blocos de Rega","Pressão",""
"WN_ALQUEVA_E62","WN_ALQUEVA_A27","Aduação Blocos de Rega","Pressão",""
"WN_ALQUEVA_R63","WN_ALQUEVA_A32","Aduação Blocos de Rega","Gravidade",""
"WN_ALQUEVA_R64","WN_ALQUEVA_E67","Aduação Blocos de Rega","Pressão",""
"WN_ALQUEVA_R64","WN_ALQUEVA_A33","Aduação Blocos de Rega","Gravidade",""
"WN_ALQUEVA_R65","WN_ALQUEVA_E69","Aduação Blocos de Rega","Gravidade",""
"WN_ALQUEVA_R65","WN_ALQUEVA_A29","Aduação Blocos de Rega","Gravidade",""
"WN_ALQUEVA_E66","WN_ALQUEVA_A30","Aduação Blocos de Rega","Pressão",""
"WN_ALQUEVA_E66","WN_ALQUEVA_A31","Aduação Blocos de Rega","Pressão",""
"WN_ALQUEVA_E66","WN_ALQUEVA_R63","Aduação Blocos de Rega","Pressão",""
"WN_ALQUEVA_E67","WN_ALQUEVA_A34","Aduação Blocos de Rega","Pressão",""
"WN_ALQUEVA_E69","WN_ALQUEVA_A28","Aduação Blocos de Rega","Pressão",""
"WN_PEDROGAO_B1","WN_PEDROGAO_E8","Aduação Blocos de Rega","Pressão","0"
"WN_PEDROGAO_B1","WN_PEDROGAO_E7","Aduação","Bombagem","12.5"
"WN_PEDROGAO_B1","WN_ARDILA_E5","Aduação","Bombagem","20"
"WN_ARDILA_B1","WN_ARDILA_E12","Aduação Blocos de Rega","Pressão","0"
"WN_ARDILA_B1","WN_ARDILA_E11","Aduação","Bombagem","8.4"
"WN_ARDILA_B2","WN_ARDILA_E27","Aduação","Bombagem","9"
"WN_ARDILA_R3","WN_ARDILA_R34","Aduação","Gravidade","9"
"WN_ARDILA_R3","WN_ARDILA_B1","Aduação","Gravidade","9"
"WN_ARDILA_R34","WN_ARDILA_E6","Aduação Blocos de Rega","Pressão","0"
"WN_ARDILA_R34","WN_ARDILA_B2","Aduação","Gravidade","0"
"WN_ARDILA_E5","WN_ARDILA_R3","Aduação","Bombagem","20"
"WN_ARDILA_B7","WN_ARDILA_B9","Aduação","Gravidade","4"
"WN_ARDILA_B7","WN_ARDILA_E13","Aduação","Bombagem","2.5"
"WN_ARDILA_B9","WN_ARDILA_E14","Aduação Blocos de Rega","Pressão","0"
"WN_ARDILA_R10","WN_ARDILA_B8","Aduação","Gravidade","0"
"WN_ARDILA_E11","WN_ARDILA_B7","Aduação","Bombagem","8.4"
"WN_ARDILA_E13","WN_ARDILA_R10","Aduação","Bombagem","2.5"
"WN_ARDILA_B15","WN_ARDILA_E33","Aduação","Bombagem","0"
"WN_ARDILA_B16","WN_ARDILA_E32","Aduação Blocos de Rega","Pressão","0"
"WN_ARDILA_R30","WN_ARDILA_E25","Aduação Blocos de Rega","Pressão","0"
"WN_ARDILA_R30","WN_ARDILA_C22","Aduação","Gravidade","7"
"WN_ARDILA_R28","WN_ARDILA_E31","Aduação Blocos de Rega","Pressão","0"
"WN_ARDILA_C22","WN_ARDILA_B15","Aduação","Gravidade","2.5"
"WN_ARDILA_C22","WN_ARDILA_C23","Aduação","Gravidade","0"
"WN_ARDILA_C23","WN_ARDILA_C24","Aduação","Gravidade","0"
"WN_ARDILA_C23","WN_ARDILA_R29","Aduação","Gravidade","1.2"
"WN_ARDILA_C24","WN_ARDILA_B17","Aduação","Gravidade","0.2"
"WN_ARDILA_C24","WN_ARDILA_B16","Aduação","Gravidade","3"
"WN_ARDILA_E27","WN_ARDILA_R30","Aduação","Bombagem","9"
"WN_ARDILA_E33","WN_ARDILA_R28","Aduação","Bombagem","0"
"WN_ARDILA_E31","WN_ARDILA_R21","Aduação Blocos de Rega","Pressão","0"
"WN_PEDROGAO_B0","WN_PEDROGAO_E13","Aduação Blocos de Rega","Pressão","0"
"WN_PEDROGAO_B3","WN_PEDROGAO_E12","Aduação","Bombagem","0"
"WN_PEDROGAO_B3","WN_PEDROGAO_E11","Aduação","Bombagem","4.5"
"WN_PEDROGAO_B3","WN_PEDROGAO_R5","Aduação","Bombagem","4.5"
"WN_PEDROGAO_R3","WN_PEDROGAO_R4","Aduação","Gravidade","1.5"
"WN_PEDROGAO_R3","WN_PEDROGAO_E9","Aduação Blocos de Rega","Pressão","0"
"WN_PEDROGAO_R3","WN_PEDROGAO_B3","Aduação","Gravidade","9.5"
"WN_PEDROGAO_R4","WN_PEDROGAO_E10","Aduação Blocos de Rega","Pressão","0"
"WN_PEDROGAO_R5","WN_PEDROGAO_B0","Aduação","Gravidade","3.8"
"WN_PEDROGAO_E7","WN_PEDROGAO_R3","Aduação","Bombagem","12.5"
"WN_PEDROGAO_E12","WN_PEDROGAO_B14","Aduação","Bombagem","0"
"WN_PEDROGAO_B14","WN_PEDROGAO_B15","Aduação","Gravidade","0"
"WN_PEDROGAO_B15","WN_PEDROGAO_R16","Aduação","Gravidade","0"
"WN_PEDROGAO_R16","WN_PEDROGAO_E18","Aduação","Bombagem","0"
"WN_PEDROGAO_E18","WN_PEDROGAO_R17","Aduação","Bombagem","0"
