id,snirh,latitude,longitude,nome,altitude,baciahid,distrito,concelho,freguesia,meio_aquat,area_drena,dist_foz_k,entidade,estado
WQS_SNIRHSUP0911_0,18M/50,39.20764,-7.37921,RIBEIRA FADAGOSA,0,GUADIANA,PORTALEGRE,PORTALEGRE,URRA,RIBEIRA DA FADAGOSA,0.0,0.0,ARH-ALENTEJO,ATIVA
WQS_SNIRHSUP0911_1,18N/50,39.246033,-7.268133,NOSSA SENHORA LAPA,0,GUADIANA,PORTALEGRE,PORTALEGRE,ALEGRETE,RIBEIRA DO SOURETE,0.0,0.0,ARH-ALENTEJO,ATIVA
WQS_SNIRHSUP0911_2,18N/54,39.26944,-7.24334,QUINTA,0,GUADIANA,PORTALEGRE,PORTALEGRE,SÃO JULIÃO,RIO XÉVORA,0.0,0.0,ARH-ALENTEJO,ATIVA
WQS_SNIRHSUP0911_3,19M/51,39.177149,-7.344694,MONTE ASSEICEIRA,0,GUADIANA,PORTALEGRE,ARRONCHES,ASSUNÇÃO,RIBEIRA DA ASSEICEIRA OU DA TORRE,0.0,0.0,ARH-ALENTEJO,ATIVA
WQS_SNIRHSUP0911_4,19N/01,39.100212,-7.264019,MONTE PISÃO,255,GUADIANA,PORTALEGRE,ARRONCHES,ASSUNÇÃO,RIO CAIA,221.14,305.78,ARH-ALENTEJO,ATIVA
WQS_SNIRHSUP0911_5,19N/50,39.12958,-7.27822,ARRONCHES,0,GUADIANA,PORTALEGRE,ARRONCHES,ASSUNÇÃO,RIBEIRA DE ARRONCHES,0.0,0.0,ARH-ALENTEJO,ATIVA
WQS_SNIRHSUP0911_6,19N/51,39.16001,-7.30087,MONTE LAJE 2006,0,GUADIANA,PORTALEGRE,ARRONCHES,MOSTEIROS,RIBEIRA DE ARRONCHES,0.0,0.0,ARH-ALENTEJO,ATIVA
WQS_SNIRHSUP0911_7,19O/02,39.111416,-7.034585,XÉVORA,221,GUADIANA,PORTALEGRE,CAMPO MAIOR,SÃO JOÃO BAPTISTA,RIO XÉVORA,491.87,303.93,ARH-ALENTEJO,ATIVA
WQS_SNIRHSUP0911_8,19O/10,39.0996,-7.12567,ALB. ABRILONGO,0,GUADIANA,PORTALEGRE,CAMPO MAIOR,NOSSA SENHORA DA GRAÇA DOS DEGOLADOS,RIBEIRA DO ABRILONGO,0.0,0.0,ARH-ALENTEJO,ATIVA
WQS_SNIRHSUP0911_10,19O/50,39.13098,-7.14384,TAGARRAIS,0,GUADIANA,PORTALEGRE,ARRONCHES,ESPERANÇA,RIBEIRA DO ABRILONGO,0.0,0.0,ARH-ALENTEJO,ATIVA
WQS_SNIRHSUP0911_11,19O/51,39.09789,-7.06224,MONTE DO MACHADO,0,GUADIANA,PORTALEGRE,CAMPO MAIOR,SÃO JOÃO BAPTISTA,BARRANCO DOS MARMELEIROS,0.0,0.0,ARH-ALENTEJO,ATIVA
WQS_SNIRHSUP0911_12,19O/52,39.07658,-7.0071,RIBEIRA DE S. JOÃO,0,GUADIANA,PORTALEGRE,CAMPO MAIOR,SÃO JOÃO BAPTISTA,RIBEIRA DE S. JOAO,0.0,0.0, ,ATIVA
WQS_SNIRHSUP0911_13,19P/50,39.03108,-6.96049,MONTE XÉVORA,0,GUADIANA,PORTALEGRE,CAMPO MAIOR,NOSSA SENHORA DA EXPECTAÇÃO,RIBEIRA DO ABRILONGO,0.0,0.0,ARH-ALENTEJO,ATIVA
WQS_SNIRHSUP0911_14,20O/02,39.00721,-7.14934,ALB. CAIA,232,GUADIANA,PORTALEGRE,ELVAS,SÃO VICENTE E VENTOSA,RIO CAIA,567.52,285.66,ÁGUAS DO VALE DO TEJO,ATIVA
WQS_SNIRHSUP0911_16,20O/04,38.8831,-7.0356,CAIA POSTO FISCAL,0,GUADIANA,PORTALEGRE,ELVAS,CAIA E SÃO PEDRO,RIO CAIA,0.0,0.0,ARH-ALENTEJO,ATIVA
WQS_SNIRHSUP0911_17,20O/05,38.8430726,-7.0769046,MONTE VINHA - JUSANTE,0,GUADIANA,PORTALEGRE,ELVAS,"AJUDA, SALVADOR E SANTO ILDEFONSO",RIO CAIA,0.0,0.0, ,ATIVA
WQS_SNIRHSUP0911_18,20O/50,38.90076,-7.06093,RIBEIRA CETO,0,GUADIANA,PORTALEGRE,ELVAS,CAIA E SÃO PEDRO,RIBEIRA DO CAIOLA OU DO CETO,0.0,0.0,ARH-ALENTEJO,ATIVA
WQS_SNIRHSUP0911_19,20O/51,38.98084,-7.11063,SEGÓVIA,0,GUADIANA,PORTALEGRE,ELVAS,CAIA E SÃO PEDRO,RIO CAIA,0.0,0.0,ARH-ALENTEJO,ATIVA
WQS_SNIRHSUP0911_20,21K/51,38.67231,-7.71322,QUEIMADO,0,GUADIANA,ÉVORA,ÉVORA,SÃO MIGUEL DE MACHEDE,RIBEIRA DA PARDIELA,0.0,0.0,ARH-ALENTEJO,ATIVA
WQS_SNIRHSUP0911_21,21M/50,38.78369,-7.35311,SÃO ROMÃO,0,GUADIANA,ÉVORA,VILA VIÇOSA,CILADAS,RIBEIRA DA ASSECA,0.0,0.0,ARH-ALENTEJO,ATIVA
WQS_SNIRHSUP0911_22,21N/02,38.7846,-7.3478,RIBEIRA ASSECA,0,GUADIANA,ÉVORA,VILA VIÇOSA,CILADAS,RIBEIRA DA ASSECA,0.0,0.0,ARH-ALENTEJO,ATIVA
WQS_SNIRHSUP0911_23,21N/10,38.77559,-7.17272,SENHORA AJUDA - CCHA,0,GUADIANA,PORTALEGRE,ELVAS,"AJUDA, SALVADOR E SANTO ILDEFONSO",RIO GUADIANA,0.0,0.0,EDIA,ATIVA
WQS_SNIRHSUP0911_24,21N/11,38.6751808,-7.2667049,ASSECA - CONFLUÊNCIA - CCHA (C),0,GUADIANA,ÉVORA,ALANDROAL,ALANDROAL (NOSSA SENHORA DA CONCEIÇÃO), ,0.0,0.0,EDIA,ATIVA
WQS_SNIRHSUP0911_26,21N/50,38.73452,-7.29968,ZAMBUJEIRA VELHA,0,GUADIANA,ÉVORA,ALANDROAL,SÃO BRÁS DOS MATOS (MINA DO BUGALHO),RIBEIRA DA ASSECA,0.0,0.0,ARH-ALENTEJO,ATIVA
WQS_SNIRHSUP0911_27,21O/01,38.831796,-7.084847,MONTE VINHA,163,GUADIANA,PORTALEGRE,ELVAS,"AJUDA, SALVADOR E SANTO ILDEFONSO",RIO GUADIANA,49865.28,257.79,ARH-ALENTEJO,ATIVA
WQS_SNIRHSUP0911_28,21O/50,38.83158,-7.08583,RIBEIRA LÃ,0,GUADIANA,PORTALEGRE,ELVAS,"AJUDA, SALVADOR E SANTO ILDEFONSO",RIBEIRA DA LA,0.0,0.0,ARH-ALENTEJO,ATIVA
WQS_SNIRHSUP0911_29,22D/02,38.50295,-8.84747,SADO - CAIS PIRITES/CAIS SAPEC (F),0,SADO,SETÚBAL,SETÚBAL, ,RIO SADO,0.0,0.0,ARH-ALENTEJO,ATIVA
WQS_SNIRHSUP0911_31,22D/03,38.5025,-8.90613,SADO - BOCA ESTUÁRIO (F),0,SADO,SETÚBAL, , ,RIO SADO,0.0,0.0,ARH-ALENTEJO,ATIVA
WQS_SNIRHSUP0911_33,22E/01,38.51557,-8.7558,SADO - CANAL ÁGUAS MOURA B (F),0,SADO,SETÚBAL, , ,RIO SADO,0.0,0.0,ARH-ALENTEJO,ATIVA
WQS_SNIRHSUP0911_35,22E/50,38.57263,-8.69844,ZAMBUJAL,0,SADO,SETÚBAL,PALMELA,MARATECA,RIBEIRA DA MARATECA OU LABULA OU SAFIRA,0.0,0.0,ARH-ALENTEJO,ATIVA
WQS_SNIRHSUP0911_36,22F/01,38.580074,-8.618866,RIBEIRA DA MARATECA,0,SADO,ÉVORA,VENDAS NOVAS,LANDEIRA,RIBEIRA DA MARATECA OU LABULA OU SAFIRA,0.0,0.0,ARH-ALENTEJO,ATIVA
WQS_SNIRHSUP0911_37,22F/50,38.58704,-8.53687,MONTE ROMEIRAS,0,SADO,ÉVORA,MONTEMOR-O-NOVO,CABRELA,RIBEIRA DA MARATECA OU LABULA OU SAFIRA,0.0,0.0,ARH-ALENTEJO,ATIVA
WQS_SNIRHSUP0911_38,22G/03,38.53192,-8.45871,PONTE CASEBRES,0,SADO,ÉVORA,MONTEMOR-O-NOVO,CABRELA,RIBEIRA DE SÃO MARTINHO,0.0,0.0,ARH-ALENTEJO,ATIVA
WQS_SNIRHSUP0911_39,22G/50,38.63602,-8.40055,CURVAL,0,SADO,ÉVORA,MONTEMOR-O-NOVO,SILVEIRAS,RIBEIRA DA MARATECA OU LABULA OU SAFIRA,0.0,0.0,ARH-ALENTEJO,ATIVA
WQS_SNIRHSUP0911_40,22H/51,38.587699,-8.224831,SÃO CRISTÓVÃO - MONTANTE,0,SADO,ÉVORA,MONTEMOR-O-NOVO,SANTIAGO DO ESCOURAL,RIBEIRA DO REMOURINHO OU DE CRISTOVAO,0.0,0.0,ARH-ALENTEJO,ATIVA
WQS_SNIRHSUP0911_41,22H/52,38.50258,-8.27551,SÃO CRISTÓVÃO - JUSANTE,0,SADO,ÉVORA,MONTEMOR-O-NOVO,SÃO CRISTÓVÃO,RIBEIRA DO REMOURINHO OU DE CRISTOVAO,0.0,0.0,ARH-ALENTEJO,ATIVA
WQS_SNIRHSUP0911_42,22J/01,38.5228,-7.9378,RIO XARRAMA - JUSANTE ETAR,0,SADO,ÉVORA,ÉVORA,HORTA DAS FIGUEIRAS,RIBEIRA DO XARRAMA,0.0,0.0,ARH-ALENTEJO,ATIVA
WQS_SNIRHSUP0911_43,22J/02,38.456079,-8.056356,RIBEIRA PERAMANCA - POMARINHO,0,SADO,ÉVORA,ÉVORA,NOSSA SENHORA DA TOUREGA,RIBEIRA DA VISCOSSA OU PERAMANCA,0.0,0.0,ARH-ALENTEJO,ATIVA
WQS_SNIRHSUP0911_44,22J/50,38.59654,-7.84971,QUINTA MAURIZ,0,GUADIANA,ÉVORA,ÉVORA,NOSSA SENHORA DE MACHEDE,RIO DEGEBE,0.0,0.0,ARH-ALENTEJO,ATIVA
WQS_SNIRHSUP0911_45,22K/02,38.52694,-7.72808,ALB. MONTE NOVO CAPT (C),0,GUADIANA,ÉVORA,ÉVORA,NOSSA SENHORA DE MACHEDE,RIO DEGEBE,0.0,0.0,ÁGUAS DO VALE DO TEJO,ATIVA
WQS_SNIRHSUP0911_49,22L/01,38.53921,-7.60685,ALB. VIGIA (C),0,GUADIANA,ÉVORA,REDONDO,MONTOITO,RIBEIRA DO VALE DO VASCO,0.0,0.0,ÁGUAS DO VALE DO TEJO,ATIVA
WQS_SNIRHSUP0911_53,22M/01,38.6352,-7.40715,ALB. LUCEFECIT,181,GUADIANA,ÉVORA,ALANDROAL,TERENA (SÃO PEDRO),RIBEIRA LUCEFÉCIT,253.84,227.56,ARH-ALENTEJO,ATIVA
WQS_SNIRHSUP0911_55,22M/03,38.5973404,-7.3441819,LUCEFÉCIT - CONFLUÊNCIA - CCHA (S),0,GUADIANA,ÉVORA,REGUENGOS DE MONSARAZ,MONSARAZ, ,0.0,0.0,EDIA,ATIVA
WQS_SNIRHSUP0911_56,22M/50,38.6509529,-7.4694546,MOINHO LUCAS,0,GUADIANA,ÉVORA,ALANDROAL,ALANDROAL (NOSSA SENHORA DA CONCEIÇÃO),RIBEIRA LUCEFÉCIT,0.0,0.0,ARH-ALENTEJO,ATIVA
WQS_SNIRHSUP0911_57,22N/15,38.55493,-7.29936,LUCEFECIT - CCHA (C),0,GUADIANA,ÉVORA,ALANDROAL,CAPELINS (SANTO ANTÓNIO), ,0.0,0.0,EDIA,ATIVA
WQS_SNIRHSUP0911_61,23C/01,38.36113,-9.01148,CWB - I - 5_2 (F),0,OCEANO ATLÂNTICO, , , ,OCEANO ATLÂNTICO,0.0,0.0,ARH-ALENTEJO,ATIVA
WQS_SNIRHSUP0911_63,23C/02,38.40048,-9.04093,CWB - I - 5_4 (F),0,OCEANO ATLÂNTICO, , , ,OCEANO ATLÂNTICO,0.0,0.0,ARH-ALENTEJO,ATIVA
WQS_SNIRHSUP0911_65,23D/02,38.4731,-8.85458,SADO - TRÓIA INTERIOR (F),0,SADO,SETÚBAL, , ,RIO SADO,0.0,0.0,ARH-ALENTEJO,ATIVA
WQS_SNIRHSUP0911_67,23D/03,38.43202,-8.95218,CWB - I - 5_1 (F),0,OCEANO ATLÂNTICO, , , ,OCEANO ATLÂNTICO,0.0,0.0,ARH-ALENTEJO,ATIVA
WQS_SNIRHSUP0911_69,23D/04,38.35267,-8.91805,CWB - I - 5_5 (F),0,OCEANO ATLÂNTICO, , , ,OCEANO ATLÂNTICO,0.0,0.0,ARH-ALENTEJO,ATIVA
WQS_SNIRHSUP0911_71,23E/01,38.4308,-8.71025,SADO - CANAL ARROZAIS B (F),0,SADO,SETÚBAL,ALCÁCER DO SAL, ,RIO SADO,0.0,0.0,ARH-ALENTEJO,ATIVA
WQS_SNIRHSUP0911_73,23E/02,38.43105,-8.81467,SADO - CANAL COMPORTA,0,SADO,SETÚBAL, , ,RIO SADO,0.0,0.0,ARH-ALENTEJO,ATIVA
WQS_SNIRHSUP0911_74,23G/01,38.420725,-8.390709,ALB. PEGO ALTAR,44,SADO,SETÚBAL,ALCÁCER DO SAL,SANTA SUSANA,RIBEIRA DE ALCÁÇOVAS,748.82,62.09,ARH-ALENTEJO,ATIVA
WQS_SNIRHSUP0911_76,23G/50,38.50153,-8.36196,MINA JUNGEIS,0,SADO,SETÚBAL,ALCÁCER DO SAL,SANTA SUSANA,RIBEIRA DO PORTO OU DE ESTANCA BURROS,0.0,0.0,ARH-ALENTEJO,ATIVA
WQS_SNIRHSUP0911_77,23G/51,38.48735,-8.30556,CAEIRA,0,SADO,ÉVORA,MONTEMOR-O-NOVO,SÃO CRISTÓVÃO,RIBEIRA DO REMOURINHO OU DE CRISTOVAO,0.0,0.0,ARH-ALENTEJO,ATIVA
WQS_SNIRHSUP0911_78,23G/53,38.43996,-8.39375,SESMARIA BATALHA,0,SADO,SETÚBAL,ALCÁCER DO SAL,SANTA SUSANA,RIBEIRA DE SANTA SUZANA,0.0,0.0,ARH-ALENTEJO,ATIVA
WQS_SNIRHSUP0911_79,23I/50,38.49835,-8.099391,MONTE ENTRE ÁGUAS,0,SADO,ÉVORA,ÉVORA,NOSSA SENHORA DA TOUREGA,RIBEIRA DE ALCÁÇOVAS,0.0,0.0,ARH-ALENTEJO,ATIVA
WQS_SNIRHSUP0911_80,23I/54,38.45167,-8.08751,VALVERDE,0,SADO,ÉVORA,ÉVORA,NOSSA SENHORA DA TOUREGA,RIBEIRA DE ALCÁÇOVAS,0.0,0.0,ARH-ALENTEJO,ATIVA
WQS_SNIRHSUP0911_81,23I/55,38.43862,-8.14861,GALO - JUSANTE,0,SADO,ÉVORA,VIANA DO ALENTEJO,ALCÁÇOVAS,RIBEIRA DE ALCÁÇOVAS,0.0,0.0,ARH-ALENTEJO,ATIVA
WQS_SNIRHSUP0911_82,23J/50,38.42554,-7.96528,MONTE NOVO ESTRADA,0,SADO,ÉVORA,ÉVORA,TORRE DE COELHEIROS,RIBEIRA DO XARRAMA,0.0,0.0,ARH-ALENTEJO,ATIVA
WQS_SNIRHSUP0911_83,23K/01,38.46643,-7.68157,VENDINHA,162,GUADIANA,ÉVORA,ÉVORA,SÃO VICENTE DO PIGEIRO,RIO DEGEBE,821.31,202.08,ARH-ALENTEJO,ATIVA
WQS_SNIRHSUP0911_84,23K/10,38.48924,-7.7293,RESERVATÓRIO R4 - CCHA,0,GUADIANA,ÉVORA,ÉVORA,SÃO MANÇOS, ,0.0,0.0,EDIA,ATIVA
WQS_SNIRHSUP0911_86,23K/11,38.36333,-7.73916,LOUREIRO - TOMADA - CCHA (C),0,GUADIANA,ÉVORA,PORTEL,MONTE DO TRIGO, ,0.0,0.0,EDIA,ATIVA
WQS_SNIRHSUP0911_89,23K/12,38.37597,-7.72186,LOUREIRO - JUSANTE - CCHA,0,GUADIANA,ÉVORA,PORTEL,MONTE DO TRIGO, ,0.0,0.0,EDIA,ATIVA
WQS_SNIRHSUP0911_90,23K/13,38.36945,-7.73484,LOUREIRO - CCHA (C),0,GUADIANA,ÉVORA,PORTEL,MONTE DO TRIGO, ,0.0,0.0,EDIA,ATIVA
WQS_SNIRHSUP0911_93,23K/14,38.480306,-7.726472,RESERVATÓRIO R4 - JUSANTE - CCHA,0,GUADIANA,ÉVORA,ÉVORA,SÃO MANÇOS, ,0.0,0.0,EDIA,ATIVA
WQS_SNIRHSUP0911_94,23K/50,38.40821,-7.71078,MOINHO FUNCHAL - MONNOV5 - CCHA,0,GUADIANA,ÉVORA,PORTEL,MONTE DO TRIGO,RIBEIRA DA ALDEIA OU DA PECENA,0.0,0.0,ARH-ALENTEJO / EDIA,ATIVA
WQS_SNIRHSUP0911_95,23L/10,38.33563,-7.61136,ÁLAMOS II - CCHA (C),0,GUADIANA,ÉVORA,PORTEL,AMIEIRA, ,0.0,0.0,EDIA,ATIVA
WQS_SNIRHSUP0911_98,23L/11,38.34475,-7.62381,ÁLAMOS I - CCHA (C),0,GUADIANA,ÉVORA,PORTEL,AMIEIRA, ,0.0,0.0,EDIA,ATIVA
WQS_SNIRHSUP0911_101,23L/12,38.349675,-7.610296,ÁLAMOS II/I - JUSANTE - CCHA,0,GUADIANA,ÉVORA,PORTEL,AMIEIRA, ,0.0,0.0,EDIA,ATIVA
WQS_SNIRHSUP0911_102,23L/15,38.33802,-7.57336,ALQUEVA - CAPTAÇÃO - CCHA (C),0,GUADIANA,ÉVORA,PORTEL,AMIEIRA,RIO GUADIANA,0.0,0.0,EDIA,ATIVA
WQS_SNIRHSUP0911_106,23L/16,38.4023338,-7.6665177,DEGEBE - CONFLUÊNCIA - CCHA (S),0,GUADIANA,ÉVORA,PORTEL,MONTE DO TRIGO, ,0.0,0.0,EDIA,ATIVA
WQS_SNIRHSUP0911_107,23M/15,38.39525,-7.38801,ALQUEVA - MOURÃO - CCHA (C),0,GUADIANA,ÉVORA,MOURÃO,MOURÃO, ,0.0,0.0,EDIA,ATIVA
WQS_SNIRHSUP0911_111,23M/16,38.4127451,-7.4665856,ÁLAMO - CCHA,0,GUADIANA,ÉVORA,REGUENGOS DE MONSARAZ,CORVAL, ,0.0,0.0,EDIA,ATIVA
WQS_SNIRHSUP0911_112,23M/17,38.4413208,-7.3394689,AZEVÉL - CONFLUÊNCIA - CCHA,0,GUADIANA,ÉVORA,ALANDROAL,CAPELINS (SANTO ANTÓNIO), ,0.0,0.0,EDIA,ATIVA
WQS_SNIRHSUP0911_113,23M/18,38.335961,-7.422912,MOURÃO - CCHA (C),0,GUADIANA,ÉVORA,MOURÃO,LUZ, ,0.0,0.0,EDIA,ATIVA
WQS_SNIRHSUP0911_115,23N/50,38.42572,-7.295489,CURRALÃO (ALB. ALQUEVA),0,GUADIANA,ÉVORA,MOURÃO,MOURÃO,RIBEIRA DOS CUNCOS,0.0,0.0,ARH-ALENTEJO,ATIVA
WQS_SNIRHSUP0911_116,24C/01,38.32988,-9.0393,CWB - I - 5_3 (F),0,OCEANO ATLÂNTICO, , , ,OCEANO ATLÂNTICO,0.0,0.0,ARH-ALENTEJO,ATIVA
WQS_SNIRHSUP0911_118,24D/01,38.23623,-8.91857,CWB - I - 5_6 (F),0,OCEANO ATLÂNTICO, , , ,OCEANO ATLÂNTICO,0.0,0.0,ARH-ALENTEJO,ATIVA
WQS_SNIRHSUP0911_120,24F/50,38.15936,-8.61244,RIBEIRA DE GRÂNDOLA II,0,SADO,SETÚBAL,GRÂNDOLA,GRÂNDOLA,RIBEIRA DE GRÂNDOLA,0.0,0.0,ARH-ALENTEJO,ATIVA
WQS_SNIRHSUP0911_121,24G/02,38.25195,-8.35902,SÃO ROMÃO SADO,7,SADO,SETÚBAL,ALCÁCER DO SAL,TORRÃO,RIO SADO,4649.48,78.23,ARH-ALENTEJO,ATIVA
WQS_SNIRHSUP0911_122,24G/50,38.31047,-8.43183,VALE LOBOS,0,SADO,SETÚBAL,ALCÁCER DO SAL,ALCÁCER DO SAL (SANTIAGO),RIBEIRA DE ALFEBRE,0.0,0.0,ARH-ALENTEJO,ATIVA
WQS_SNIRHSUP0911_123,24H/03,38.29922,-8.23488,TORRÃO ALENTEJO,0,SADO,SETÚBAL,ALCÁCER DO SAL,TORRÃO,RIBEIRA DO XARRAMA,0.0,0.0,ARH-ALENTEJO,ATIVA
WQS_SNIRHSUP0911_124,24H/04,38.248278,-8.295056,ALB. VALE GAIO,32,SADO,SETÚBAL,ALCÁCER DO SAL,TORRÃO,RIBEIRA DO XARRAMA,513.29,84.93,ARH-ALENTEJO,ATIVA
WQS_SNIRHSUP0911_126,24H/50,38.23645,-8.32926,MONTE SALEMA,0,SADO,SETÚBAL,ALCÁCER DO SAL,TORRÃO,RIO SADO,0.0,0.0,ARH-ALENTEJO,ATIVA
WQS_SNIRHSUP0911_127,24H/51,38.18296,-8.23762,CERRO VERMELHO,0,SADO,BEJA,FERREIRA DO ALENTEJO,ODIVELAS,RIBEIRA SOBRANA OU DE VILA NOVA SOBERANA,0.0,0.0,ARH-ALENTEJO,ATIVA
WQS_SNIRHSUP0911_128,24I/02,38.185242,-8.114744,ALB. ODIVELAS,88,SADO,BEJA,FERREIRA DO ALENTEJO,ODIVELAS,RIBEIRA DE ODIVELAS OU ORIOLA OU ALVITO,431.88,109.41,ARH-ALENTEJO,ATIVA
WQS_SNIRHSUP0911_130,24I/03,38.17586,-8.13342,ODIVELAS - JUSANTE - CCHA,0,SADO,BEJA,FERREIRA DO ALENTEJO,ODIVELAS,RIBEIRA DE ODIVELAS OU ORIOLA OU ALVITO,0.0,0.0,EDIA,ATIVA
WQS_SNIRHSUP0911_131,24I/50,38.226894,-8.010368,MONTE AZINHEIRA,0,SADO,BEJA,ALVITO,ALVITO,RIBEIRA DE ODIVELAS OU ORIOLA OU ALVITO,0.0,0.0,ARH-ALENTEJO,ATIVA
WQS_SNIRHSUP0911_132,24I/52,38.19477,-8.15672,PORTEIRA RIJA,0,SADO,BEJA,FERREIRA DO ALENTEJO,ODIVELAS,BARRANCO DO RIO SECO OU DO CARPETAL,0.0,0.0,ARH-ALENTEJO,ATIVA
WQS_SNIRHSUP0911_133,24J/02,38.279184,-7.910647,ALB. ALVITO,193,SADO,BEJA,CUBA,VILA ALVA,RIBEIRA DE ODIVELAS OU ORIOLA OU ALVITO,210.77,136.97,ÁGUAS PÚBLICAS DO ALENTEJO S.A.,ATIVA
WQS_SNIRHSUP0911_135,24J/10,38.30871,-7.84206,ALVITO - TÚNEL - CCHA (C),0,SADO,ÉVORA,PORTEL,ORIOLA, ,0.0,0.0,EDIA,ATIVA
WQS_SNIRHSUP0911_137,24J/11,38.28328,-7.90905,ALVITO - CCHA (C),0,SADO,ÉVORA,PORTEL,SÃO BARTOLOMEU DO OUTEIRO, ,0.0,0.0,EDIA,ATIVA
WQS_SNIRHSUP0911_140,24J/12,38.27118,-7.91606,ALVITO - JUSANTE - CCHA,0,SADO,BEJA,CUBA,VILA ALVA, ,0.0,0.0,EDIA,ATIVA
WQS_SNIRHSUP0911_141,24K/10,38.307081,-7.826414,ALVITO - MONTANTE - CCHA,0,SADO,ÉVORA,PORTEL,SANTANA, ,0.0,0.0,EDIA,ATIVA
WQS_SNIRHSUP0911_142,24K/50,38.30728,-7.82844,MONTE VANGA,0,SADO,ÉVORA,PORTEL,SANTANA,RIBEIRA DE ODIVELAS OU ORIOLA OU ALVITO,0.0,0.0,ARH-ALENTEJO,ATIVA
WQS_SNIRHSUP0911_143,24L/04,38.32804,-7.5959,ÁLAMOS III - CCHA (C),0,GUADIANA,ÉVORA,PORTEL,AMIEIRA, ,0.0,0.0,EDIA,ATIVA
WQS_SNIRHSUP0911_146,24L/05,38.3343299,-7.5919671,ÁLAMOS III - JUSANTE - CCHA,0,GUADIANA,ÉVORA,PORTEL,AMIEIRA, ,0.0,0.0,EDIA,ATIVA
WQS_SNIRHSUP0911_147,24L/50,38.22948,-7.66854,RIBEIRA MARMELAR,0,GUADIANA,ÉVORA,PORTEL,VERA CRUZ,RIBEIRA DE MARMELAR,0.0,0.0,ARH-ALENTEJO,ATIVA
WQS_SNIRHSUP0911_148,24M/15,38.21812,-7.46554,ALQUEVA MONTANTE - CCHA (C),0,GUADIANA,BEJA,MOURA,MOURA (SÃO JOÃO BAPTISTA), ,0.0,0.0,EDIA,ATIVA
WQS_SNIRHSUP0911_152,24M/16,38.17133,-7.489,ALQUEVA - JUSANTE - CCHA (C),0,GUADIANA,BEJA,MOURA,MOURA (SÃO JOÃO BAPTISTA), ,0.0,0.0,EDIA,ATIVA
WQS_SNIRHSUP0911_155,24N/15,38.31994,-7.32272,ALCARRACHE - CCHA (C),0,GUADIANA,ÉVORA,MOURÃO,MOURÃO, ,0.0,0.0,EDIA,ATIVA
WQS_SNIRHSUP0911_159,24N/16,38.3290621,-7.278675,ALCARRACHE - MONTANTE - CCHA (C),0,GUADIANA,ÉVORA,MOURÃO,GRANJA, ,0.0,0.0,EDIA,ATIVA
WQS_SNIRHSUP0911_162,24N/17,38.23758,-7.328,ZEBRO CONFLUÊNCIA - CCHA,0,GUADIANA,BEJA,MOURA,PÓVOA DE SÃO MIGUEL, ,0.0,0.0,EDIA,ATIVA
WQS_SNIRHSUP0911_163,24N/50,38.287617,-7.206895,LOMBO ROMÃO,0,GUADIANA,ÉVORA,MOURÃO,MOURÃO,RIBEIRA DE GODELIM,0.0,0.0,ARH-ALENTEJO,ATIVA
WQS_SNIRHSUP0911_164,24O/01,38.17272,-7.12759,ARDILA 1,145,GUADIANA,ÉVORA,MOURÃO,GRANJA,RIO ARDILA,2837.09,203.07,ARH-ALENTEJO,ATIVA
WQS_SNIRHSUP0911_165,24O/50,38.17533,-7.1258,ARDILA - BARRANCOS,0,GUADIANA,BEJA,BARRANCOS,BARRANCOS,RIO ARDILA,0.0,0.0,ARH-ALENTEJO,ATIVA
WQS_SNIRHSUP0911_166,25D/01,38.11715,-8.91282,CWB - I - 5_7 (F),0,OCEANO ATLÂNTICO, , , ,OCEANO ATLÂNTICO,0.0,0.0,ARH-ALENTEJO,ATIVA
WQS_SNIRHSUP0911_168,25E/01,38.14688,-8.73299,MELIDES,27,RIBEIRAS DO ALENTEJO,SETÚBAL,GRÂNDOLA,MELIDES,RIBEIRA DA LAGOA DE MELIDES,36.77,5.92,ARH-ALENTEJO,ATIVA
WQS_SNIRHSUP0911_169,25E/02,38.07072,-8.77556,BADOCA,0,RIBEIRAS DO ALENTEJO,SETÚBAL,SANTIAGO DO CACÉM,SANTO ANDRÉ,RIBEIRA DA PONTE OU DO MONTE BARRANCO,0.0,0.0,ARH-ALENTEJO,ATIVA
WQS_SNIRHSUP0911_170,25E/03,38.11127,-8.7975,LAGOA SANTO ANDRÉ - A,0,RIBEIRAS DO ALENTEJO,SETÚBAL,SANTIAGO DO CACÉM,SANTO ANDRÉ,RIBEIRA DA BADOCA OU SANTO ANDRÉ,0.0,0.0,ARH-ALENTEJO,ATIVA
WQS_SNIRHSUP0911_171,25E/04,38.10747,-8.79718,LAGOA SANTO ANDRÉ - B,0,RIBEIRAS DO ALENTEJO,SETÚBAL,SANTIAGO DO CACÉM,SANTO ANDRÉ,RIBEIRA DA BADOCA OU SANTO ANDRÉ,0.0,0.0,ARH-ALENTEJO,ATIVA
WQS_SNIRHSUP0911_172,25E/05,38.10597,-8.79338,LAGOA SANTO ANDRÉ - C,0,RIBEIRAS DO ALENTEJO,SETÚBAL,SANTIAGO DO CACÉM,SANTO ANDRÉ,RIBEIRA DA BADOCA OU SANTO ANDRÉ,0.0,0.0,ARH-ALENTEJO,ATIVA
WQS_SNIRHSUP0911_173,25E/06,38.10122,-8.79437,LAGOA SANTO ANDRÉ - D,0,RIBEIRAS DO ALENTEJO,SETÚBAL,SANTIAGO DO CACÉM,SANTO ANDRÉ,RIBEIRA DA BADOCA OU SANTO ANDRÉ,0.0,0.0,ARH-ALENTEJO,ATIVA
WQS_SNIRHSUP0911_174,25E/07,38.09687,-8.78802,LAGOA SANTO ANDRÉ - E,0,RIBEIRAS DO ALENTEJO,SETÚBAL,SANTIAGO DO CACÉM,SANTO ANDRÉ,RIBEIRA DA BADOCA OU SANTO ANDRÉ,0.0,0.0,ARH-ALENTEJO,ATIVA
WQS_SNIRHSUP0911_175,25E/50,38.10069,-8.77808,CERRADINHA,0,RIBEIRAS DO ALENTEJO,SETÚBAL,SANTIAGO DO CACÉM,SANTO ANDRÉ,RIBEIRA DA CASCALHEIRA OU BARRANCO DO LIVRAMENTO,0.0,0.0,ARH-ALENTEJO,ATIVA
WQS_SNIRHSUP0911_176,25F/50,38.14396,-8.52009,SÃO BARNABÉ,0,SADO,SETÚBAL,GRÂNDOLA,GRÂNDOLA,RIBEIRA DE GRÂNDOLA,0.0,0.0,ARH-ALENTEJO,ATIVA
WQS_SNIRHSUP0911_177,25G/02,38.06099,-8.41093,MOINHO BRAVO,0,SADO,SETÚBAL,GRÂNDOLA,AZINHEIRA DOS BARROS E SÃO MAMEDE DO SÁDÃO,RIBEIRA DE CORONA,0.0,0.0,ARH-ALENTEJO,ATIVA
WQS_SNIRHSUP0911_178,25G/03,38.06714,-8.40821,MOINHO GAMITINHA,29,SADO,SETÚBAL,GRÂNDOLA,AZINHEIRA DOS BARROS E SÃO MAMEDE DO SÁDÃO,RIO SADO,2936.86,111.94,ARH-ALENTEJO,ATIVA
WQS_SNIRHSUP0911_179,25G/06,38.0117,-8.3842,ERMIDAS-POMARINHO,0,SADO,SETÚBAL,SANTIAGO DO CACÉM,ERMIDAS-SADO,RIO SADO,0.0,0.0,ARH-ALENTEJO,ATIVA
WQS_SNIRHSUP0911_180,25G/08,38.000617,-8.391399,ERMIDAS SADO I,0,SADO,SETÚBAL,SANTIAGO DO CACÉM,ERMIDAS-SADO, ,0.0,0.0,ÁGUAS DE SANTO ANDRÉ,ATIVA
WQS_SNIRHSUP0911_181,25H/01,38.05306,-8.30708,RIBEIRA FIGUEIRA,0,SADO,BEJA,FERREIRA DO ALENTEJO,CANHESTROS,RIBEIRA DO PORTO DE MOUROS OU DA FIGUEIRA OU ALFUNDÃO OU TRAMANQUEIRA,0.0,0.0,ARH-ALENTEJO,ATIVA
WQS_SNIRHSUP0911_182,25H/50,38.06246,-8.28248,RIBEIRA DA FIGUEIRA I,0,SADO,BEJA,FERREIRA DO ALENTEJO,FIGUEIRA DOS CAVALEIROS,RIBEIRA DO PORTO DE MOUROS OU DA FIGUEIRA OU ALFUNDÃO OU TRAMANQUEIRA,0.0,0.0,ARH-ALENTEJO,ATIVA
WQS_SNIRHSUP0911_183,25I/50,38.13701,-8.09232,ALFUNDÃO - ALF2 - CCHA,0,SADO,BEJA,FERREIRA DO ALENTEJO,ALFUNDÃO,RIBEIRA DO PORTO DE MOUROS OU DA FIGUEIRA OU ALFUNDÃO OU TRAMANQUEIRA,0.0,0.0,ARH-ALENTEJO / EDIA,ATIVA
WQS_SNIRHSUP0911_184,25I/51,38.006197,-8.072698,PENEDRÃO - CCHA (C),0,SADO, , , , ,0.0,0.0,EDIA,ATIVA
WQS_SNIRHSUP0911_186,25J/10,38.08121,-7.98195,ALB. PISÃO - CCHA (C),0,SADO,BEJA,BEJA,TRIGACHES, ,0.0,0.0,EDIA,ATIVA
WQS_SNIRHSUP0911_188,25J/11,38.086036,-7.991264,PISÃO JUSANTE - CCHA,0,SADO, , , , ,0.0,0.0,EDIA,ATIVA
WQS_SNIRHSUP0911_189,25J/50,38.118683,-7.85328,SÃO MATIAS,0,GUADIANA,BEJA,BEJA,SÃO MATIAS,RIBEIRA DE ODEARCA,0.0,0.0,ARH-ALENTEJO,ATIVA
WQS_SNIRHSUP0911_190,25K/01,38.0168,-7.7878,RIBEIRA CARDEIRA,0,GUADIANA,BEJA,BEJA,NOSSA SENHORA DAS NEVES,RIBEIRA DA CARDEIRA,0.0,0.0,ARH-ALENTEJO,ATIVA
WQS_SNIRHSUP0911_191,25K/50,38.12399,-7.73579,MONTE ANDRESA,0,GUADIANA,BEJA,VIDIGUEIRA,SELMES,RIBEIRA DE SELMES,0.0,0.0,ARH-ALENTEJO,ATIVA
WQS_SNIRHSUP0911_192,25L/03,38.11076,-7.62882,ARDILA - CAPTAÇÃO - CCHA (F),0,GUADIANA,BEJA,SERPA,PIAS,RIO GUADIANA,0.0,0.0,EDIA,ATIVA
WQS_SNIRHSUP0911_194,25L/04,38.11185,-7.63079,PEDROGÃO - CAPTAÇÃO - CCHA (F),0,GUADIANA,BEJA,VIDIGUEIRA,PEDRÓGÃO,RIO GUADIANA,0.0,0.0,EDIA,ATIVA
WQS_SNIRHSUP0911_196,25L/05,38.11165,-7.62914,PEDROGÃO/ARDILA - CAPTAÇÃO - CCHA (C),0,GUADIANA,BEJA,SERPA,PIAS, ,0.0,0.0,EDIA,ATIVA
WQS_SNIRHSUP0911_199,25L/06,38.10624,-7.63371,PEDROGÃO - JUSANTE - CCHA,0,GUADIANA,BEJA,SERPA,PIAS,RIO GUADIANA,0.0,0.0,EDIA,ATIVA
WQS_SNIRHSUP0911_200,25L/07,38.09552,-7.56259,AMOREIRA - CCHA (C),0,GUADIANA,BEJA,SERPA,PIAS, ,0.0,0.0,EDIA,ATIVA
WQS_SNIRHSUP0911_202,25L/08,38.0597,-7.58459,BRINCHES - CCHA (C),0,GUADIANA,BEJA,SERPA,BRINCHES, ,0.0,0.0,EDIA,ATIVA
WQS_SNIRHSUP0911_204,25L/09,38.101136,-7.569781,AMOREIRA JUSANTE - CCHA,0,GUADIANA, , , , ,0.0,0.0,EDIA,ATIVA
WQS_SNIRHSUP0911_205,25L/10,38.059835,-7.595125,BRINCHES - JUSANTE - CCHA,0,GUADIANA, , , , ,0.0,0.0,EDIA,ATIVA
WQS_SNIRHSUP0911_206,25M/15,38.16497,-7.45856,ARDILA - CCHA (C),0,GUADIANA,BEJA,MOURA,MOURA (SÃO JOÃO BAPTISTA),RIO GUADIANA,0.0,0.0,EDIA,ATIVA
WQS_SNIRHSUP0911_209,25M/50,38.16763,-7.41255,PORTO MOURÃO,0,GUADIANA,BEJA,MOURA,MOURA (SÃO JOÃO BAPTISTA),RIO ARDILA,0.0,0.0,ARH-ALENTEJO,ATIVA
WQS_SNIRHSUP0911_210,25N/02,38.15182,-7.23755,ARDILA - CAPTAÇÃO,123,GUADIANA,BEJA,MOURA,SAFARA,RIO ARDILA,3218.89,185.94,ARH-ALENTEJO,ATIVA
WQS_SNIRHSUP0911_211,25N/50,38.08007,-7.29701,MONTE COROADA,0,GUADIANA,BEJA,MOURA,SOBRAL DA ADIÇA,RIO ARDILA,0.0,0.0,ARH-ALENTEJO,ATIVA
WQS_SNIRHSUP0911_212,25N/53,38.12424,-7.22136,SAFARA,0,GUADIANA,BEJA,MOURA,SAFARA,RIBEIRA DE SAFAREJO,0.0,0.0,ARH-ALENTEJO,ATIVA
WQS_SNIRHSUP0911_213,25O/50,38.09095,-7.09585,MURTIGÃO,0,GUADIANA,BEJA,MOURA,SANTO ALEIXO DA RESTAURAÇÃO,RIBEIRA DE MURTIGAO,0.0,0.0,ARH-ALENTEJO,ATIVA
WQS_SNIRHSUP0911_214,25P/01,38.15182,-6.99427,AÇ. BUFO,183,GUADIANA,BEJA,BARRANCOS,BARRANCOS,RIBEIRA DA MÚRTEGA,801.61,224.9,ARH-ALENTEJO,ATIVA
WQS_SNIRHSUP0911_216,25P/02,38.157734,-6.970863,MÚRTEGA,189,GUADIANA,BEJA,BARRANCOS,BARRANCOS,RIBEIRA DA MÚRTEGA,796.38,227.41,ARH-ALENTEJO,ATIVA
WQS_SNIRHSUP0911_217,26D/02,37.85313,-8.85895,CWB - II - 5_1 (F),0,OCEANO ATLÂNTICO, , , ,OCEANO ATLÂNTICO,0.0,0.0,ARH-ALENTEJO,ATIVA
WQS_SNIRHSUP0911_219,26D/50,37.97488,-8.83989,RIBEIRA MOINHOS,0,RIBEIRAS DO ALENTEJO,SETÚBAL,SINES,SINES,BARRANCO DAS CAMARINHEIRAS,0.0,0.0,ARH-ALENTEJO,ATIVA
WQS_SNIRHSUP0911_220,26E/01,37.90234,-8.76323,ALB. MORGAVEL,0,RIBEIRAS DO ALENTEJO,SETÚBAL,SINES,SINES,RIBEIRA DE MORGAVÉL,0.0,0.0,ÁGUAS DE SANTO ANDRÉ,ATIVA
WQS_SNIRHSUP0911_225,26F/03,37.84104,-8.62029,ALB. CAMPILHAS,104,SADO,SETÚBAL,SANTIAGO DO CACÉM,VALE DE ÁGUA,RIBEIRA DE CAMPILHAS,106.87,163.15,ARH-ALENTEJO,ATIVA
WQS_SNIRHSUP0911_227,26F/50,37.98416,-8.5522,HORTA BAIXO,0,SADO,SETÚBAL,SANTIAGO DO CACÉM,ABELA,RIBEIRA DE CORONA,0.0,0.0,ARH-ALENTEJO,ATIVA
WQS_SNIRHSUP0911_228,26F/54,37.94136,-8.58238,RIBEIRA SÃO DOMINGOS,0,SADO,SETÚBAL,SANTIAGO DO CACÉM,SÃO DOMINGOS,RIBEIRA DE SÃO DOMINGOS,0.0,0.0,ARH-ALENTEJO,ATIVA
WQS_SNIRHSUP0911_229,26G/04,37.93201,-8.40446,ALVALADE CAMPILHAS,45,SADO,SETÚBAL,SANTIAGO DO CACÉM,ALVALADE,RIBEIRA DE CAMPILHAS,698.32,131.4,ARH-ALENTEJO,ATIVA
WQS_SNIRHSUP0911_230,26G/05,37.94118,-8.3835,ALVALADE SADO,49,SADO,SETÚBAL,SANTIAGO DO CACÉM,ALVALADE,RIO SADO,669.75,131.02,ARH-ALENTEJO,ATIVA
WQS_SNIRHSUP0911_231,26G/06,37.88056,-8.49749,ALB. FONTE SERNE,72,SADO,SETÚBAL,SANTIAGO DO CACÉM,SÃO DOMINGOS,BARRANCO DE BENATELAR,31.68,146.31,CCDR-ALENTEJO,ATIVA
WQS_SNIRHSUP0911_233,26G/07,37.99259,-8.38278,ERMIDAS-CASTELHANO,0,SADO,SETÚBAL,SANTIAGO DO CACÉM,ALVALADE,RIBEIRA DO ROXO OU DE SANTA VITÓRIA,0.0,0.0,ARH-ALENTEJO,ATIVA
WQS_SNIRHSUP0911_234,26G/51,37.84464,-8.43195,RIBEIRA DA GEMA,0,SADO,BEJA,ODEMIRA,BICOS,RIBEIRA DA GEMA,0.0,0.0,ARH-ALENTEJO,ATIVA
WQS_SNIRHSUP0911_235,26H/01,37.96841,-8.33491,NABOS,49,SADO,SETÚBAL,SANTIAGO DO CACÉM,ERMIDAS-SADO,RIBEIRA DO ROXO OU DE SANTA VITÓRIA,643.69,129.16,ARH-ALENTEJO,ATIVA
WQS_SNIRHSUP0911_236,26H/50,37.93238,-8.20768,CASETA - ERV6 - CCHA,0,SADO,BEJA,ALJUSTREL,RIO DE MOINHOS,RIBEIRA DO ROXO OU DE SANTA VITÓRIA,0.0,0.0,ARH-ALENTEJO / EDIA,ATIVA
WQS_SNIRHSUP0911_237,26I/02,37.93247,-8.07391,ALB. ROXO (C),0,SADO,BEJA,ALJUSTREL,ERVIDEL,RIBEIRA DO ROXO OU DE SANTA VITÓRIA,0.0,0.0,ÁGUAS PÚBLICAS DO ALENTEJO S.A.,ATIVA
WQS_SNIRHSUP0911_239,26I/03,37.89579,-8.13707,RIBEIRA ÁGUA FORTE,0,SADO,BEJA,ALJUSTREL,ALJUSTREL,RIBEIRA DA AGUA FORTE,0.0,0.0,ARH-ALENTEJO,ATIVA
WQS_SNIRHSUP0911_240,26I/50,37.93344,-8.14489,COVANCOS ASSARIAS,0,SADO,BEJA,ALJUSTREL,ALJUSTREL,RIBEIRA DA AGUA FORTE,0.0,0.0,ARH-ALENTEJO,ATIVA
WQS_SNIRHSUP0911_241,26J/50,37.95539,-7.99333,MONTE OUTEIRO,0,SADO,BEJA,BEJA,SANTA VITÓRIA,RIBEIRA DO OUTEIRO OU BARRANCO DO RASCAS OU ROXO,0.0,0.0,ARH-ALENTEJO,ATIVA
WQS_SNIRHSUP0911_242,26K/03,37.9047,-7.82628,PONTE RIBEIRA LOUREDO,0,GUADIANA,BEJA,BEJA,CABEÇA GORDA,RIBEIRA DA LAPA OU BARRANCO DO LOUREDO,0.0,0.0,ARH-ALENTEJO,ATIVA
WQS_SNIRHSUP0911_243,26K/50,37.96467,-7.69191,QUINTOS - SPEBAL3 - CCHA,0,GUADIANA,BEJA,BEJA,QUINTOS,RIBEIRA DA CARDEIRA,0.0,0.0,ARH-ALENTEJO / EDIA,ATIVA
WQS_SNIRHSUP0911_244,26L/10,37.99178,-7.6045,SERPA - CCHA (C),0,GUADIANA,BEJA,SERPA,SERPA (SANTA MARIA), ,0.0,0.0,EDIA,ATIVA
WQS_SNIRHSUP0911_246,26L/11,37.99301,-7.60988,SERPA JUSANTE - CCHA,0,GUADIANA, , , , ,0.0,0.0,EDIA,ATIVA
WQS_SNIRHSUP0911_247,26L/12,37.96952,-7.51694,LAJE - CCHA (C),0,GUADIANA, , , , ,0.0,0.0,EDIA,ATIVA
WQS_SNIRHSUP0911_249,26L/13,37.970163,-7.528651,LAJE JUSANTE - CCHA,0,GUADIANA, , , , ,0.0,0.0,EDIA,ATIVA
WQS_SNIRHSUP0911_250,26L/50,37.981754,-7.6532,SERPA,0,GUADIANA,BEJA,SERPA,SERPA (SANTA MARIA),RIO GUADIANA,0.0,0.0,ARH-ALENTEJO,ATIVA
WQS_SNIRHSUP0911_251,26L/51,37.87408,-7.51022,FONTE LETREIRO,0,GUADIANA,BEJA,SERPA,SERPA (SALVADOR),RIBEIRA LIMAS,0.0,0.0,ARH-ALENTEJO,ATIVA
WQS_SNIRHSUP0911_252,26L/52,37.87047,-7.52779,MALHADA VALVERDE,0,GUADIANA,BEJA,SERPA,SERPA (SALVADOR),RIBEIRA LIMAS,0.0,0.0,ARH-ALENTEJO,ATIVA
WQS_SNIRHSUP0911_253,26L/55,37.96806,-7.56056,NEGREIROS,0,GUADIANA,BEJA,SERPA,SERPA (SALVADOR),BARRANCO DA MORGADINHA,0.0,0.0,ARH-ALENTEJO,ATIVA
WQS_SNIRHSUP0911_254,26M/02,37.99335,-7.46434,ALB. ENXOÉ,175,GUADIANA,BEJA,SERPA,SERPA (SALVADOR),RIBEIRA DO ENXOÉ,61.12,139.16,ÁGUAS PÚBLICAS DO ALENTEJO S.A.,ATIVA
WQS_SNIRHSUP0911_256,26N/50,37.93324,-7.25793,MONTE PAIVA,0,GUADIANA,BEJA,SERPA,VILA VERDE DE FICALHO,RIO CHANÇA,0.0,0.0,ARH-ALENTEJO,ATIVA
WQS_SNIRHSUP0911_257,26N/51,37.89312,-7.30371,FICALHO,0,GUADIANA,BEJA,SERPA,VILA VERDE DE FICALHO,RIBEIRA DO VIDIGAO,0.0,0.0,ARH-ALENTEJO,ATIVA
WQS_SNIRHSUP0911_258,27D/01,37.68117,-8.87528,CWB - II - 5_2 (F),0,OCEANO ATLÂNTICO, , , ,OCEANO ATLÂNTICO,0.0,0.0,ARH-ALENTEJO,ATIVA
WQS_SNIRHSUP0911_260,27E/01,37.67717,-8.72805,MIRA - MONTANTE MOINHO LOURAZ (F),0,MIRA,BEJA,ODEMIRA, ,RIO MIRA,0.0,0.0,ARH-ALENTEJO,ATIVA
WQS_SNIRHSUP0911_262,27E/02,37.701,-8.73567,MIRA - FOZ PONTE QUEBRADA (F),0,MIRA,BEJA,ODEMIRA, ,RIO MIRA,0.0,0.0,ARH-ALENTEJO,ATIVA
WQS_SNIRHSUP0911_264,27E/03,37.7266,-8.75198,MIRA - FOZ PORTO MÓ (F),0,MIRA,BEJA,ODEMIRA, ,RIO MIRA,0.0,0.0,ARH-ALENTEJO,ATIVA
WQS_SNIRHSUP0911_266,27E/04,37.72647,-8.77035,MIRA - PONTE ESTRADA 393 (F),0,MIRA,BEJA,ODEMIRA, ,RIO MIRA,0.0,0.0,ARH-ALENTEJO,ATIVA
WQS_SNIRHSUP0911_268,27E/05,37.71472,-8.7908,MIRA - FOZ,0,MIRA, , , ,RIO MIRA,0.0,0.0,ARH-ALENTEJO,ATIVA
WQS_SNIRHSUP0911_269,27F/50,37.68722,-8.61846,XEIXINAL,0,MIRA,BEJA,ODEMIRA,SÃO LUÍS,RIBEIRA DO TORGAL,0.0,0.0,ARH-ALENTEJO,ATIVA
WQS_SNIRHSUP0911_270,27G/50,37.7119,-8.34241,GARVÃO,0,SADO,BEJA,OURIQUE,GARVÃO,RIBEIRA DE GARVAO OU DAS PIMENTAS,0.0,0.0,ARH-ALENTEJO,ATIVA
WQS_SNIRHSUP0911_271,27H/03,37.72733,-8.2889,ALB. MONTE ROCHA,132,SADO,BEJA,OURIQUE,PANÓIAS,RIO SADO,244.93,161.83,ÁGUAS PÚBLICAS DO ALENTEJO S.A.,ATIVA
WQS_SNIRHSUP0911_273,27H/50,37.67818,-8.25821,COTOVIO,0,SADO,BEJA,OURIQUE,OURIQUE,RIO SADO,0.0,0.0,ARH-ALENTEJO,ATIVA
WQS_SNIRHSUP0911_274,27I/50,37.67956,-8.02319,ZAMBUJAL - RIO COBRES,0,GUADIANA,BEJA,CASTRO VERDE,CASTRO VERDE,RIO COBRES OU RIBEIRA DE TERGES,0.0,0.0,ARH-ALENTEJO,ATIVA
WQS_SNIRHSUP0911_275,27J/01,37.8347,-7.861,MONTE DA PONTE,106,GUADIANA,BEJA,MÉRTOLA,ALCARIA RUIVA,RIO COBRES OU RIBEIRA DE TERGES,720.76,127.26,ARH-ALENTEJO,ATIVA
WQS_SNIRHSUP0911_276,27L/01,37.80567,-7.63305,PULO LOBO,28,GUADIANA,BEJA,MÉRTOLA,MÉRTOLA,RIO GUADIANA,61882.75,93.25,ARH-ALENTEJO,ATIVA
WQS_SNIRHSUP0911_277,27L/53,37.82253,-7.62257,LIMAS - PONTÃO,0,GUADIANA,BEJA,SERPA,SERPA (SANTA MARIA),RIBEIRA LIMAS,0.0,0.0,ARH-ALENTEJO,ATIVA
WQS_SNIRHSUP0911_278,27M/50,37.70227,-7.43933,MONTA LAGUNA,0,GUADIANA,BEJA,MÉRTOLA,CORTE DO PINTO,RIO CHANÇA,0.0,0.0,ARH-ALENTEJO,ATIVA
WQS_SNIRHSUP0911_279,28E/01,37.62483,-8.68763,BOTELHA GRANDE 2,0,MIRA,BEJA,ODEMIRA, , ,0.0,0.0,INAG/IPIMAR,ATIVA
WQS_SNIRHSUP0911_280,28E/02,37.63048,-8.69432,MIRA - AÇ. BOTELHA GRANDE,0,MIRA,BEJA,ODEMIRA, ,RIO MIRA,0.0,0.0,ARH-ALENTEJO,ATIVA
WQS_SNIRHSUP0911_281,28E/03,37.63993,-8.70277,MIRA - CASÃO,0,MIRA,BEJA,ODEMIRA, ,RIO MIRA,0.0,0.0,ARH-ALENTEJO,ATIVA
WQS_SNIRHSUP0911_282,28E/04,37.65623,-8.71262,MIRA - ADEGAS (F),0,MIRA,BEJA,ODEMIRA, ,RIO MIRA,0.0,0.0,ARH-ALENTEJO,ATIVA
WQS_SNIRHSUP0911_284,28E/50,37.62625,-8.68829,BOTELHA GRANDE,0,MIRA,BEJA,ODEMIRA, ,RIO MIRA,0.0,0.0,ARH-ALENTEJO,ATIVA
WQS_SNIRHSUP0911_285,28E/51,37.62256,-8.70786,VÁRZEA (MIRA),0,MIRA,BEJA,ODEMIRA,ODEMIRA (SÃO SALVADOR),RIBEIRA DE VALE DE GOMES,0.0,0.0,ARH-ALENTEJO,ATIVA
WQS_SNIRHSUP0911_286,28F/01,37.59091,-8.64661,MONTANTE ODEMIRA,0,MIRA,BEJA,ODEMIRA, ,RIO MIRA,0.0,0.0,INAG/IPIMAR,ATIVA
WQS_SNIRHSUP0911_287,28F/02,37.59838,-8.6477,ODEMIRA - BAIRRO CHE,0,MIRA,BEJA,ODEMIRA, ,RIO MIRA,0.0,0.0,INAG/IPIMAR,ATIVA
WQS_SNIRHSUP0911_288,28F/03,37.61642,-8.6581,VALE LINHOS (F),0,MIRA,BEJA,ODEMIRA, ,RIO MIRA,0.0,0.0,INAG/IPIMAR,ATIVA
WQS_SNIRHSUP0911_290,28F/23,37.607556,-8.6582912,MIRA - QUINTA VALE PALHETE,1,MIRA,BEJA,ODEMIRA,ODEMIRA (SÃO SALVADOR),RIO MIRA,1140.99,27.61,ARH-ALENTEJO,ATIVA
WQS_SNIRHSUP0911_291,28F/50,37.56928,-8.62419,CANEJA BAIXO,0,MIRA,BEJA,ODEMIRA,BOAVISTA DOS PINHEIROS,RIBEIRA DA MACHEIRA,0.0,0.0,ARH-ALENTEJO,ATIVA
WQS_SNIRHSUP0911_292,28F/55,37.63315,-8.62422,TORGAL - JUSANTE,0,MIRA,BEJA,ODEMIRA,ODEMIRA (SÃO SALVADOR),RIBEIRA DO TORGAL,0.0,0.0,ARH-ALENTEJO,ATIVA
WQS_SNIRHSUP0911_293,28F/56,37.584843,-8.534109,LUZIANES,0,MIRA,BEJA,ODEMIRA,LUZIANES-GARE,BARRANCO DAS PIPINAS,0.0,0.0,ARH-ALENTEJO,ATIVA
WQS_SNIRHSUP0911_294,28G/03,37.51244,-8.43814,ALB. SANTA CLARA,127,MIRA,BEJA,ODEMIRA,SANTA CLARA-A-VELHA,RIO MIRA,522.55,74.5,ÁGUAS PÚBLICAS DO ALENTEJO S.A.,ATIVA
WQS_SNIRHSUP0911_296,28G/10,37.52922,-8.36534,ALB. SANTA CLARA 2 (C),0,MIRA,BEJA,ODEMIRA,SANTA CLARA-A-VELHA,RIO MIRA,0.0,0.0,ÁGUAS PÚBLICAS DO ALENTEJO S.A.,ATIVA
WQS_SNIRHSUP0911_297,28G/50,37.56151,-8.48424,CERRO VELHA,0,MIRA,BEJA,ODEMIRA,LUZIANES-GARE,BARRANCO DE EL-REI,0.0,0.0,ARH-ALENTEJO,ATIVA
WQS_SNIRHSUP0911_298,28G/51,37.55872,-8.46613,FOZ ESTAÇÕES,0,MIRA,BEJA,ODEMIRA,LUZIANES-GARE,RIBEIRA DA CORTE BRIQUE,0.0,0.0,ARH-ALENTEJO,ATIVA
WQS_SNIRHSUP0911_299,28G/52,37.5389,-8.48474,SANTA CLARA,0,MIRA,BEJA,ODEMIRA,SABOIA,BARRANCO DE EL-REI,0.0,0.0,ARH-ALENTEJO,ATIVA
WQS_SNIRHSUP0911_300,28H/01,37.57447,-8.29356,CASTRO COLA,143,MIRA,BEJA,OURIQUE,OURIQUE,RIO MIRA,222.96,96.12,ARH-ALENTEJO,ATIVA
WQS_SNIRHSUP0911_301,28H/52,37.510975,-8.183145,GOMES AIRES MONTANTE,0,MIRA,BEJA,ALMODÔVAR,SANTA CLARA-A-NOVA,RIO MIRA,0.0,0.0,ARH-ALENTEJO,ATIVA
WQS_SNIRHSUP0911_302,28I/01,37.50203,-8.09126,ALB. BOAVISTA,306,GUADIANA,BEJA,ALMODÔVAR,ALMODÔVAR,BARRANCO DA BOAVISTA,3.52,189.53,ARH-ALENTEJO,ATIVA
WQS_SNIRHSUP0911_303,28J/01,37.54798,-7.9961,NEVES CORVO,208,GUADIANA,BEJA,ALMODÔVAR,ALMODÔVAR,RIBEIRA DE ALVACAR,103.01,122.08,ARH-ALENTEJO,ATIVA
WQS_SNIRHSUP0911_304,28K/02,37.642404,-7.683063,OEIRAS,73,GUADIANA,BEJA,MÉRTOLA,MÉRTOLA,RIBEIRA DE ALVACAR,463.58,79.1,ARH-ALENTEJO,ATIVA
WQS_SNIRHSUP0911_305,28L/01,37.57472,-7.58407,GUADIANA - PROVIÇOS (F),0,GUADIANA,BEJA,MÉRTOLA, ,RIO GUADIANA,0.0,0.0,ARH-ALENTEJO,ATIVA
WQS_SNIRHSUP0911_307,28L/02,37.51575,-7.581152,VASCÃO - JUSANTE (COURELA),49,GUADIANA,BEJA,MÉRTOLA,ESPÍRITO SANTO,RIBEIRA DO VASCÃO,409.89,57.17,ARH-ALGARVE,ATIVA
WQS_SNIRHSUP0911_308,28L/03,37.64624,-7.65216,ROCHA NORA,21,GUADIANA,BEJA,MÉRTOLA,MÉRTOLA,RIO GUADIANA,62087.71,73.11,ARH-ALENTEJO,ATIVA
WQS_SNIRHSUP0911_309,28L/04,37.66955,-7.50534,ALB. TAPADA GRANDE,128,GUADIANA,BEJA,MÉRTOLA,SANTANA DE CAMBAS,RIBEIRA DA TAPADA GRANDE,32.66,69.72,ARH-ALENTEJO,ATIVA
WQS_SNIRHSUP0911_311,28L/05,37.65563,-7.50861,MINA DE S. DOMINGOS - MOITINHOS,0,GUADIANA,BEJA,MÉRTOLA,SANTANA DE CAMBAS,BARRANCO DA CABECA DE AIRES,0.0,0.0,ARH-ALENTEJO,ATIVA
WQS_SNIRHSUP0911_312,28L/06,37.55385,-7.56243,GUADIANA - CABRA ASSADA (F),0,GUADIANA,BEJA,MÉRTOLA, , ,0.0,0.0,ARH-ALENTEJO,ATIVA
WQS_SNIRHSUP0911_314,28L/07,37.55335,-7.52258,GUADIANA - FOZ CHANÇA (F),0,GUADIANA,BEJA,MÉRTOLA, ,RIO GUADIANA,0.0,0.0,ARH-ALENTEJO,ATIVA
WQS_SNIRHSUP0911_316,28L/08,37.52602,-7.51248,GUADIANA - FOZ VASCÃO (F),0,GUADIANA, , , ,RIO GUADIANA,0.0,0.0,ARH-ALENTEJO,ATIVA
WQS_SNIRHSUP0911_318,28L/50,37.635861,-7.513828,PORTELA SÃO BENTO,0,GUADIANA,BEJA,MÉRTOLA,SANTANA DE CAMBAS,BARRANCO DA CABECA DE AIRES,0.0,0.0,ARH-ALENTEJO,ATIVA
WQS_SNIRHSUP0911_319,29D/01,37.47693,-8.86857,CWB - II - 5_3 (F),0,OCEANO ATLÂNTICO, , , ,OCEANO ATLÂNTICO,0.0,0.0,ARH-ALENTEJO,ATIVA
WQS_SNIRHSUP0911_321,29G/50,37.49633,-8.48265,SANTA CLARA SABOIA,0,MIRA,BEJA,ODEMIRA,SANTA CLARA-A-VELHA,RIBEIRA DOS TELHARES,0.0,0.0,ARH-ALENTEJO,ATIVA
WQS_SNIRHSUP0911_322,29G/51,37.46595,-8.36251,RIO TORTO,0,MIRA,BEJA,OURIQUE,SANTANA DA SERRA,RIO TORTO,0.0,0.0,ARH-ALENTEJO,ATIVA
WQS_SNIRHSUP0911_323,29I/01,37.49679,-8.06092,ALB. MONTE CLÉRIGO,293,GUADIANA,BEJA,ALMODÔVAR,ALMODÔVAR,RIO COBRES OU RIBEIRA DE TERGES,3.22,187.52,ARH-ALENTEJO,ATIVA
WQS_SNIRHSUP0911_324,29M/04,37.47395,-7.46972,GUADIANA - FOZ CADAVAIS (F),0,GUADIANA,FARO,ALCOUTIM,ALCOUTIM,RIO GUADIANA,0.0,0.0,ARH-ALENTEJO,ATIVA
WQS_SNIRHSUP0911_326,29M/05,37.4239,-7.45157,GUADIANA - GONZALO MARTIN (F),0,GUADIANA,FARO,ALCOUTIM,ALCOUTIM,RIO GUADIANA,0.0,0.0,ARH-ALENTEJO,ATIVA
WQS_SNIRHSUP0911_328,29M/06,37.34803,-7.44437,GUADIANA - FOZ ODELEITE B (F),0,GUADIANA,FARO,CASTRO MARIM,ODELEITE,RIO GUADIANA,0.0,0.0,ARH-ALENTEJO,ATIVA
WQS_SNIRHSUP0911_330,30M/01,37.1983,-7.42715,GUADIANA - ESTEIRO CARRASQUEIRA/PONTE V. R. S. A.,0,GUADIANA,FARO, , ,ESTEIRO DA CARRASQUEIRA,0.0,0.0,ARH-ALENTEJO,ATIVA
WQS_SNIRHSUP0911_331,30M/02,37.2135,-7.41428,GUADIANA - AYAMONTE (S),0,GUADIANA,FARO, , ,RIO GUADIANA,0.0,0.0,ARH-ALENTEJO,ATIVA
WQS_SNIRHSUP0911_332,30M/04,37.18462,-7.4078,GUADIANA - JUSANTE VILA REAL SANTO ANTÓNIO (F),0,GUADIANA,FARO,VILA REAL DE SANTO ANTÓNIO,VILA REAL DE SANTO ANTÓNIO,RIO GUADIANA,0.0,0.0,ARH-ALENTEJO,ATIVA
WQS_SNIRHSUP0911_334,30M/05,37.17092,-7.39975,GUADIANA - FOZ (F),0,GUADIANA,FARO,VILA REAL DE SANTO ANTÓNIO,VILA REAL DE SANTO ANTÓNIO,RIO GUADIANA,0.0,0.0,ARH-ALENTEJO,ATIVA
WQS_SNIRHSUP0911_336,30M/07,37.27837,-7.42405,GUADIANA - FOZ ARROYO (F),0,GUADIANA,FARO,CASTRO MARIM,AZINHAL,RIO GUADIANA,0.0,0.0,ARH-ALENTEJO,ATIVA
WQS_SNIRHSUP0911_338,30M/08,37.2367,-7.41815,GUADIANA - SAPAL VENTA MOINHOS (F),0,GUADIANA,FARO,ALCOUTIM,ALCOUTIM,RIO GUADIANA,0.0,0.0,ARH-ALENTEJO,ATIVA
WQS_SNIRHSUP0911_340,30M/09,37.21352,-7.43815,GUADIANA - ESTEIRO LEZÍRIA/PONTE CASTRO MARIM,0,GUADIANA,FARO,CASTRO MARIM,CASTRO MARIM,RIBEIRA DO RIO SECO,0.0,0.0,INAG/IPIMAR,ATIVA
